Week,comforter
2006-01-01 - 2006-01-07,79
2006-01-08 - 2006-01-14,77
2006-01-15 - 2006-01-21,72
2006-01-22 - 2006-01-28,71
2006-01-29 - 2006-02-04,71
2006-02-05 - 2006-02-11,62
2006-02-12 - 2006-02-18,59
2006-02-19 - 2006-02-25,70
2006-02-26 - 2006-03-04,62
2006-03-05 - 2006-03-11,62
2006-03-12 - 2006-03-18,59
2006-03-19 - 2006-03-25,62
2006-03-26 - 2006-04-01,53
2006-04-02 - 2006-04-08,56
2006-04-09 - 2006-04-15,58
2006-04-16 - 2006-04-22,50
2006-04-23 - 2006-04-29,57
2006-04-30 - 2006-05-06,58
2006-05-07 - 2006-05-13,53
2006-05-14 - 2006-05-20,50
2006-05-21 - 2006-05-27,49
2006-05-28 - 2006-06-03,52
2006-06-04 - 2006-06-10,59
2006-06-11 - 2006-06-17,56
2006-06-18 - 2006-06-24,57
2006-06-25 - 2006-07-01,64
2006-07-02 - 2006-07-08,62
2006-07-09 - 2006-07-15,73
2006-07-16 - 2006-07-22,72
2006-07-23 - 2006-07-29,79
2006-07-30 - 2006-08-05,72
2006-08-06 - 2006-08-12,77
2006-08-13 - 2006-08-19,75
2006-08-20 - 2006-08-26,72
2006-08-27 - 2006-09-02,70
2006-09-03 - 2006-09-09,69
2006-09-10 - 2006-09-16,60
2006-09-17 - 2006-09-23,65
2006-09-24 - 2006-09-30,63
2006-10-01 - 2006-10-07,67
2006-10-08 - 2006-10-14,66
2006-10-15 - 2006-10-21,65
2006-10-22 - 2006-10-28,64
2006-10-29 - 2006-11-04,62
2006-11-05 - 2006-11-11,66
2006-11-12 - 2006-11-18,69
2006-11-19 - 2006-11-25,78
2006-11-26 - 2006-12-02,84
2006-12-03 - 2006-12-09,88
2006-12-10 - 2006-12-16,69
2006-12-17 - 2006-12-23,61
2006-12-24 - 2006-12-30,78
2006-12-31 - 2007-01-06,77
2007-01-07 - 2007-01-13,64
2007-01-14 - 2007-01-20,65
2007-01-21 - 2007-01-27,66
2007-01-28 - 2007-02-03,63
2007-02-04 - 2007-02-10,60
2007-02-11 - 2007-02-17,56
2007-02-18 - 2007-02-24,62
2007-02-25 - 2007-03-03,56
2007-03-04 - 2007-03-10,54
2007-03-11 - 2007-03-17,49
2007-03-18 - 2007-03-24,47
2007-03-25 - 2007-03-31,47
2007-04-01 - 2007-04-07,50
2007-04-08 - 2007-04-14,49
2007-04-15 - 2007-04-21,50
2007-04-22 - 2007-04-28,46
2007-04-29 - 2007-05-05,48
2007-05-06 - 2007-05-12,49
2007-05-13 - 2007-05-19,45
2007-05-20 - 2007-05-26,48
2007-05-27 - 2007-06-02,51
2007-06-03 - 2007-06-09,49
2007-06-10 - 2007-06-16,49
2007-06-17 - 2007-06-23,48
2007-06-24 - 2007-06-30,52
2007-07-01 - 2007-07-07,58
2007-07-08 - 2007-07-14,62
2007-07-15 - 2007-07-21,63
2007-07-22 - 2007-07-28,67
2007-07-29 - 2007-08-04,68
2007-08-05 - 2007-08-11,65
2007-08-12 - 2007-08-18,63
2007-08-19 - 2007-08-25,64
2007-08-26 - 2007-09-01,56
2007-09-02 - 2007-09-08,53
2007-09-09 - 2007-09-15,57
2007-09-16 - 2007-09-22,51
2007-09-23 - 2007-09-29,53
2007-09-30 - 2007-10-06,51
2007-10-07 - 2007-10-13,54
2007-10-14 - 2007-10-20,55
2007-10-21 - 2007-10-27,54
2007-10-28 - 2007-11-03,54
2007-11-04 - 2007-11-10,63
2007-11-11 - 2007-11-17,61
2007-11-18 - 2007-11-24,69
2007-11-25 - 2007-12-01,75
2007-12-02 - 2007-12-08,77
2007-12-09 - 2007-12-15,68
2007-12-16 - 2007-12-22,57
2007-12-23 - 2007-12-29,65
2007-12-30 - 2008-01-05,73
2008-01-06 - 2008-01-12,61
2008-01-13 - 2008-01-19,58
2008-01-20 - 2008-01-26,58
2008-01-27 - 2008-02-02,56
2008-02-03 - 2008-02-09,55
2008-02-10 - 2008-02-16,55
2008-02-17 - 2008-02-23,58
2008-02-24 - 2008-03-01,54
2008-03-02 - 2008-03-08,49
2008-03-09 - 2008-03-15,49
2008-03-16 - 2008-03-22,47
2008-03-23 - 2008-03-29,44
2008-03-30 - 2008-04-05,47
2008-04-06 - 2008-04-12,47
2008-04-13 - 2008-04-19,45
2008-04-20 - 2008-04-26,46
2008-04-27 - 2008-05-03,49
2008-05-04 - 2008-05-10,46
2008-05-11 - 2008-05-17,48
2008-05-18 - 2008-05-24,46
2008-05-25 - 2008-05-31,48
2008-06-01 - 2008-06-07,47
2008-06-08 - 2008-06-14,45
2008-06-15 - 2008-06-21,50
2008-06-22 - 2008-06-28,54
2008-06-29 - 2008-07-05,53
2008-07-06 - 2008-07-12,63
2008-07-13 - 2008-07-19,66
2008-07-20 - 2008-07-26,69
2008-07-27 - 2008-08-02,66
2008-08-03 - 2008-08-09,68
2008-08-10 - 2008-08-16,68
2008-08-17 - 2008-08-23,61
2008-08-24 - 2008-08-30,55
2008-08-31 - 2008-09-06,54
2008-09-07 - 2008-09-13,51
2008-09-14 - 2008-09-20,51
2008-09-21 - 2008-09-27,51
2008-09-28 - 2008-10-04,54
2008-10-05 - 2008-10-11,51
2008-10-12 - 2008-10-18,52
2008-10-19 - 2008-10-25,56
2008-10-26 - 2008-11-01,50
2008-11-02 - 2008-11-08,52
2008-11-09 - 2008-11-15,65
2008-11-16 - 2008-11-22,67
2008-11-23 - 2008-11-29,73
2008-11-30 - 2008-12-06,80
2008-12-07 - 2008-12-13,73
2008-12-14 - 2008-12-20,66
2008-12-21 - 2008-12-27,62
2008-12-28 - 2009-01-03,82
2009-01-04 - 2009-01-10,66
2009-01-11 - 2009-01-17,60
2009-01-18 - 2009-01-24,58
2009-01-25 - 2009-01-31,56
2009-02-01 - 2009-02-07,54
2009-02-08 - 2009-02-14,49
2009-02-15 - 2009-02-21,52
2009-02-22 - 2009-02-28,53
2009-03-01 - 2009-03-07,51
2009-03-08 - 2009-03-14,50
2009-03-15 - 2009-03-21,50
2009-03-22 - 2009-03-28,52
2009-03-29 - 2009-04-04,49
2009-04-05 - 2009-04-11,49
2009-04-12 - 2009-04-18,47
2009-04-19 - 2009-04-25,48
2009-04-26 - 2009-05-02,48
2009-05-03 - 2009-05-09,48
2009-05-10 - 2009-05-16,46
2009-05-17 - 2009-05-23,47
2009-05-24 - 2009-05-30,50
2009-05-31 - 2009-06-06,50
2009-06-07 - 2009-06-13,49
2009-06-14 - 2009-06-20,53
2009-06-21 - 2009-06-27,50
2009-06-28 - 2009-07-04,55
2009-07-05 - 2009-07-11,62
2009-07-12 - 2009-07-18,67
2009-07-19 - 2009-07-25,69
2009-07-26 - 2009-08-01,67
2009-08-02 - 2009-08-08,69
2009-08-09 - 2009-08-15,65
2009-08-16 - 2009-08-22,64
2009-08-23 - 2009-08-29,56
2009-08-30 - 2009-09-05,53
2009-09-06 - 2009-09-12,57
2009-09-13 - 2009-09-19,52
2009-09-20 - 2009-09-26,53
2009-09-27 - 2009-10-03,52
2009-10-04 - 2009-10-10,52
2009-10-11 - 2009-10-17,56
2009-10-18 - 2009-10-24,53
2009-10-25 - 2009-10-31,50
2009-11-01 - 2009-11-07,51
2009-11-08 - 2009-11-14,56
2009-11-15 - 2009-11-21,64
2009-11-22 - 2009-11-28,72
2009-11-29 - 2009-12-05,75
2009-12-06 - 2009-12-12,71
2009-12-13 - 2009-12-19,64
2009-12-20 - 2009-12-26,51
2009-12-27 - 2010-01-02,71
2010-01-03 - 2010-01-09,61
2010-01-10 - 2010-01-16,54
2010-01-17 - 2010-01-23,55
2010-01-24 - 2010-01-30,54
2010-01-31 - 2010-02-06,55
2010-02-07 - 2010-02-13,52
2010-02-14 - 2010-02-20,55
2010-02-21 - 2010-02-27,53
2010-02-28 - 2010-03-06,49
2010-03-07 - 2010-03-13,49
2010-03-14 - 2010-03-20,46
2010-03-21 - 2010-03-27,44
2010-03-28 - 2010-04-03,44
2010-04-04 - 2010-04-10,41
2010-04-11 - 2010-04-17,42
2010-04-18 - 2010-04-24,48
2010-04-25 - 2010-05-01,47
2010-05-02 - 2010-05-08,44
2010-05-09 - 2010-05-15,45
2010-05-16 - 2010-05-22,44
2010-05-23 - 2010-05-29,44
2010-05-30 - 2010-06-05,45
2010-06-06 - 2010-06-12,45
2010-06-13 - 2010-06-19,47
2010-06-20 - 2010-06-26,47
2010-06-27 - 2010-07-03,49
2010-07-04 - 2010-07-10,55
2010-07-11 - 2010-07-17,64
2010-07-18 - 2010-07-24,65
2010-07-25 - 2010-07-31,63
2010-08-01 - 2010-08-07,62
2010-08-08 - 2010-08-14,55
2010-08-15 - 2010-08-21,59
2010-08-22 - 2010-08-28,54
2010-08-29 - 2010-09-04,50
2010-09-05 - 2010-09-11,55
2010-09-12 - 2010-09-18,47
2010-09-19 - 2010-09-25,49
2010-09-26 - 2010-10-02,47
2010-10-03 - 2010-10-09,50
2010-10-10 - 2010-10-16,48
2010-10-17 - 2010-10-23,50
2010-10-24 - 2010-10-30,49
2010-10-31 - 2010-11-06,52
2010-11-07 - 2010-11-13,58
2010-11-14 - 2010-11-20,61
2010-11-21 - 2010-11-27,71
2010-11-28 - 2010-12-04,74
2010-12-05 - 2010-12-11,69
2010-12-12 - 2010-12-18,62
2010-12-19 - 2010-12-25,51
2010-12-26 - 2011-01-01,68
2011-01-02 - 2011-01-08,62
2011-01-09 - 2011-01-15,58
2011-01-16 - 2011-01-22,56
2011-01-23 - 2011-01-29,53
2011-01-30 - 2011-02-05,57
2011-02-06 - 2011-02-12,50
2011-02-13 - 2011-02-19,49
2011-02-20 - 2011-02-26,54
2011-02-27 - 2011-03-05,49
2011-03-06 - 2011-03-12,49
2011-03-13 - 2011-03-19,44
2011-03-20 - 2011-03-26,47
2011-03-27 - 2011-04-02,48
2011-04-03 - 2011-04-09,45
2011-04-10 - 2011-04-16,43
2011-04-17 - 2011-04-23,46
2011-04-24 - 2011-04-30,42
2011-05-01 - 2011-05-07,42
2011-05-08 - 2011-05-14,42
2011-05-15 - 2011-05-21,47
2011-05-22 - 2011-05-28,46
2011-05-29 - 2011-06-04,45
2011-06-05 - 2011-06-11,46
2011-06-12 - 2011-06-18,46
2011-06-19 - 2011-06-25,51
2011-06-26 - 2011-07-02,51
2011-07-03 - 2011-07-09,51
2011-07-10 - 2011-07-16,60
2011-07-17 - 2011-07-23,61
2011-07-24 - 2011-07-30,59
2011-07-31 - 2011-08-06,60
2011-08-07 - 2011-08-13,59
2011-08-14 - 2011-08-20,58
2011-08-21 - 2011-08-27,51
2011-08-28 - 2011-09-03,49
2011-09-04 - 2011-09-10,53
2011-09-11 - 2011-09-17,49
2011-09-18 - 2011-09-24,51
2011-09-25 - 2011-10-01,50
2011-10-02 - 2011-10-08,51
2011-10-09 - 2011-10-15,49
2011-10-16 - 2011-10-22,51
2011-10-23 - 2011-10-29,52
2011-10-30 - 2011-11-05,54
2011-11-06 - 2011-11-12,59
2011-11-13 - 2011-11-19,59
2011-11-20 - 2011-11-26,70
2011-11-27 - 2011-12-03,76
2011-12-04 - 2011-12-10,70
2011-12-11 - 2011-12-17,67
2011-12-18 - 2011-12-24,56
2011-12-25 - 2011-12-31,69
2012-01-01 - 2012-01-07,64
2012-01-08 - 2012-01-14,60
2012-01-15 - 2012-01-21,59
2012-01-22 - 2012-01-28,58
2012-01-29 - 2012-02-04,56
2012-02-05 - 2012-02-11,55
2012-02-12 - 2012-02-18,57
2012-02-19 - 2012-02-25,60
2012-02-26 - 2012-03-03,57
2012-03-04 - 2012-03-10,55
2012-03-11 - 2012-03-17,51
2012-03-18 - 2012-03-24,47
2012-03-25 - 2012-03-31,48
2012-04-01 - 2012-04-07,47
2012-04-08 - 2012-04-14,47
2012-04-15 - 2012-04-21,47
2012-04-22 - 2012-04-28,49
2012-04-29 - 2012-05-05,50
2012-05-06 - 2012-05-12,46
2012-05-13 - 2012-05-19,44
2012-05-20 - 2012-05-26,47
2012-05-27 - 2012-06-02,49
2012-06-03 - 2012-06-09,50
2012-06-10 - 2012-06-16,51
2012-06-17 - 2012-06-23,54
2012-06-24 - 2012-06-30,55
2012-07-01 - 2012-07-07,58
2012-07-08 - 2012-07-14,67
2012-07-15 - 2012-07-21,68
2012-07-22 - 2012-07-28,69
2012-07-29 - 2012-08-04,66
2012-08-05 - 2012-08-11,68
2012-08-12 - 2012-08-18,66
2012-08-19 - 2012-08-25,61
2012-08-26 - 2012-09-01,57
2012-09-02 - 2012-09-08,59
2012-09-09 - 2012-09-15,58
2012-09-16 - 2012-09-22,59
2012-09-23 - 2012-09-29,59
2012-09-30 - 2012-10-06,56
2012-10-07 - 2012-10-13,58
2012-10-14 - 2012-10-20,54
2012-10-21 - 2012-10-27,53
2012-10-28 - 2012-11-03,55
2012-11-04 - 2012-11-10,61
2012-11-11 - 2012-11-17,66
2012-11-18 - 2012-11-24,78
2012-11-25 - 2012-12-01,86
2012-12-02 - 2012-12-08,74
2012-12-09 - 2012-12-15,70
2012-12-16 - 2012-12-22,60
2012-12-23 - 2012-12-29,67
2012-12-30 - 2013-01-05,72
2013-01-06 - 2013-01-12,61
2013-01-13 - 2013-01-19,59
2013-01-20 - 2013-01-26,62
2013-01-27 - 2013-02-02,58
2013-02-03 - 2013-02-09,57
2013-02-10 - 2013-02-16,57
2013-02-17 - 2013-02-23,65
2013-02-24 - 2013-03-02,60
2013-03-03 - 2013-03-09,60
2013-03-10 - 2013-03-16,58
2013-03-17 - 2013-03-23,58
2013-03-24 - 2013-03-30,56
2013-03-31 - 2013-04-06,51
2013-04-07 - 2013-04-13,53
2013-04-14 - 2013-04-20,53
2013-04-21 - 2013-04-27,53
2013-04-28 - 2013-05-04,52
2013-05-05 - 2013-05-11,50
2013-05-12 - 2013-05-18,47
2013-05-19 - 2013-05-25,51
2013-05-26 - 2013-06-01,53
2013-06-02 - 2013-06-08,53
2013-06-09 - 2013-06-15,53
2013-06-16 - 2013-06-22,52
2013-06-23 - 2013-06-29,58
2013-06-30 - 2013-07-06,60
2013-07-07 - 2013-07-13,68
2013-07-14 - 2013-07-20,67
2013-07-21 - 2013-07-27,73
2013-07-28 - 2013-08-03,74
2013-08-04 - 2013-08-10,73
2013-08-11 - 2013-08-17,70
2013-08-18 - 2013-08-24,66
2013-08-25 - 2013-08-31,60
2013-09-01 - 2013-09-07,62
2013-09-08 - 2013-09-14,57
2013-09-15 - 2013-09-21,60
2013-09-22 - 2013-09-28,56
2013-09-29 - 2013-10-05,55
2013-10-06 - 2013-10-12,59
2013-10-13 - 2013-10-19,61
2013-10-20 - 2013-10-26,62
2013-10-27 - 2013-11-02,60
2013-11-03 - 2013-11-09,66
2013-11-10 - 2013-11-16,73
2013-11-17 - 2013-11-23,74
2013-11-24 - 2013-11-30,87
2013-12-01 - 2013-12-07,91
2013-12-08 - 2013-12-14,82
2013-12-15 - 2013-12-21,67
2013-12-22 - 2013-12-28,66
2013-12-29 - 2014-01-04,81
2014-01-05 - 2014-01-11,69
2014-01-12 - 2014-01-18,64
2014-01-19 - 2014-01-25,66
2014-01-26 - 2014-02-01,61
2014-02-02 - 2014-02-08,60
2014-02-09 - 2014-02-15,63
2014-02-16 - 2014-02-22,67
2014-02-23 - 2014-03-01,63
2014-03-02 - 2014-03-08,64
2014-03-09 - 2014-03-15,60
2014-03-16 - 2014-03-22,58
2014-03-23 - 2014-03-29,59
2014-03-30 - 2014-04-05,56
2014-04-06 - 2014-04-12,56
2014-04-13 - 2014-04-19,54
2014-04-20 - 2014-04-26,52
2014-04-27 - 2014-05-03,55
2014-05-04 - 2014-05-10,53
2014-05-11 - 2014-05-17,51
2014-05-18 - 2014-05-24,53
2014-05-25 - 2014-05-31,54
2014-06-01 - 2014-06-07,52
2014-06-08 - 2014-06-14,54
2014-06-15 - 2014-06-21,55
2014-06-22 - 2014-06-28,60
2014-06-29 - 2014-07-05,59
2014-07-06 - 2014-07-12,68
2014-07-13 - 2014-07-19,75
2014-07-20 - 2014-07-26,75
2014-07-27 - 2014-08-02,74
2014-08-03 - 2014-08-09,74
2014-08-10 - 2014-08-16,69
2014-08-17 - 2014-08-23,67
2014-08-24 - 2014-08-30,63
2014-08-31 - 2014-09-06,62
2014-09-07 - 2014-09-13,61
2014-09-14 - 2014-09-20,62
2014-09-21 - 2014-09-27,60
2014-09-28 - 2014-10-04,60
2014-10-05 - 2014-10-11,61
2014-10-12 - 2014-10-18,60
2014-10-19 - 2014-10-25,62
2014-10-26 - 2014-11-01,61
2014-11-02 - 2014-11-08,71
2014-11-09 - 2014-11-15,77
2014-11-16 - 2014-11-22,82
2014-11-23 - 2014-11-29,93
2014-11-30 - 2014-12-06,100
2014-12-07 - 2014-12-13,84
2014-12-14 - 2014-12-20,74
2014-12-21 - 2014-12-27,70
2014-12-28 - 2015-01-03,88
2015-01-04 - 2015-01-10,73
2015-01-11 - 2015-01-17,69
2015-01-18 - 2015-01-24,65
2015-01-25 - 2015-01-31,66
2015-02-01 - 2015-02-07,64
2015-02-08 - 2015-02-14,63
2015-02-15 - 2015-02-21,72
2015-02-22 - 2015-02-28,66
2015-03-01 - 2015-03-07,67
2015-03-08 - 2015-03-14,62
2015-03-15 - 2015-03-21,57
2015-03-22 - 2015-03-28,59
2015-03-29 - 2015-04-04,57
2015-04-05 - 2015-04-11,56
2015-04-12 - 2015-04-18,54
2015-04-19 - 2015-04-25,58
2015-04-26 - 2015-05-02,56
2015-05-03 - 2015-05-09,52
2015-05-10 - 2015-05-16,54
2015-05-17 - 2015-05-23,55
2015-05-24 - 2015-05-30,58
2015-05-31 - 2015-06-06,59
2015-06-07 - 2015-06-13,56
2015-06-14 - 2015-06-20,58
2015-06-21 - 2015-06-27,59
2015-06-28 - 2015-07-04,65
2015-07-05 - 2015-07-11,68
2015-07-12 - 2015-07-18,74
2015-07-19 - 2015-07-25,74
2015-07-26 - 2015-08-01,72
2015-08-02 - 2015-08-08,71
2015-08-09 - 2015-08-15,73
2015-08-16 - 2015-08-22,68
2015-08-23 - 2015-08-29,64
2015-08-30 - 2015-09-05,62
2015-09-06 - 2015-09-12,65
2015-09-13 - 2015-09-19,61
2015-09-20 - 2015-09-26,61
2015-09-27 - 2015-10-03,63
2015-10-04 - 2015-10-10,63
2015-10-11 - 2015-10-17,62
2015-10-18 - 2015-10-24,64
2015-10-25 - 2015-10-31,65
2015-11-01 - 2015-11-07,68
2015-11-08 - 2015-11-14,77
2015-11-15 - 2015-11-21,80
2015-11-22 - 2015-11-28,97
2015-11-29 - 2015-12-05,99
2015-12-06 - 2015-12-12,85
2015-12-13 - 2015-12-19,81
2015-12-20 - 2015-12-26,73
2015-12-27 - 2016-01-02,94
