Week,kitchen faucet
2006-01-01 - 2006-01-07,49
2006-01-08 - 2006-01-14,61
2006-01-15 - 2006-01-21,57
2006-01-22 - 2006-01-28,65
2006-01-29 - 2006-02-04,68
2006-02-05 - 2006-02-11,72
2006-02-12 - 2006-02-18,51
2006-02-19 - 2006-02-25,67
2006-02-26 - 2006-03-04,56
2006-03-05 - 2006-03-11,47
2006-03-12 - 2006-03-18,59
2006-03-19 - 2006-03-25,56
2006-03-26 - 2006-04-01,58
2006-04-02 - 2006-04-08,56
2006-04-09 - 2006-04-15,58
2006-04-16 - 2006-04-22,58
2006-04-23 - 2006-04-29,55
2006-04-30 - 2006-05-06,52
2006-05-07 - 2006-05-13,65
2006-05-14 - 2006-05-20,53
2006-05-21 - 2006-05-27,43
2006-05-28 - 2006-06-03,57
2006-06-04 - 2006-06-10,58
2006-06-11 - 2006-06-17,56
2006-06-18 - 2006-06-24,63
2006-06-25 - 2006-07-01,53
2006-07-02 - 2006-07-08,60
2006-07-09 - 2006-07-15,64
2006-07-16 - 2006-07-22,56
2006-07-23 - 2006-07-29,70
2006-07-30 - 2006-08-05,68
2006-08-06 - 2006-08-12,59
2006-08-13 - 2006-08-19,63
2006-08-20 - 2006-08-26,67
2006-08-27 - 2006-09-02,51
2006-09-03 - 2006-09-09,56
2006-09-10 - 2006-09-16,53
2006-09-17 - 2006-09-23,55
2006-09-24 - 2006-09-30,48
2006-10-01 - 2006-10-07,59
2006-10-08 - 2006-10-14,62
2006-10-15 - 2006-10-21,49
2006-10-22 - 2006-10-28,51
2006-10-29 - 2006-11-04,53
2006-11-05 - 2006-11-11,59
2006-11-12 - 2006-11-18,54
2006-11-19 - 2006-11-25,42
2006-11-26 - 2006-12-02,43
2006-12-03 - 2006-12-09,45
2006-12-10 - 2006-12-16,43
2006-12-17 - 2006-12-23,37
2006-12-24 - 2006-12-30,69
2006-12-31 - 2007-01-06,68
2007-01-07 - 2007-01-13,65
2007-01-14 - 2007-01-20,62
2007-01-21 - 2007-01-27,53
2007-01-28 - 2007-02-03,50
2007-02-04 - 2007-02-10,57
2007-02-11 - 2007-02-17,57
2007-02-18 - 2007-02-24,53
2007-02-25 - 2007-03-03,58
2007-03-04 - 2007-03-10,55
2007-03-11 - 2007-03-17,49
2007-03-18 - 2007-03-24,51
2007-03-25 - 2007-03-31,59
2007-04-01 - 2007-04-07,58
2007-04-08 - 2007-04-14,56
2007-04-15 - 2007-04-21,48
2007-04-22 - 2007-04-28,51
2007-04-29 - 2007-05-05,52
2007-05-06 - 2007-05-12,41
2007-05-13 - 2007-05-19,47
2007-05-20 - 2007-05-26,48
2007-05-27 - 2007-06-02,44
2007-06-03 - 2007-06-09,46
2007-06-10 - 2007-06-16,53
2007-06-17 - 2007-06-23,47
2007-06-24 - 2007-06-30,50
2007-07-01 - 2007-07-07,46
2007-07-08 - 2007-07-14,53
2007-07-15 - 2007-07-21,59
2007-07-22 - 2007-07-28,54
2007-07-29 - 2007-08-04,59
2007-08-05 - 2007-08-11,67
2007-08-12 - 2007-08-18,64
2007-08-19 - 2007-08-25,56
2007-08-26 - 2007-09-01,48
2007-09-02 - 2007-09-08,54
2007-09-09 - 2007-09-15,51
2007-09-16 - 2007-09-22,51
2007-09-23 - 2007-09-29,49
2007-09-30 - 2007-10-06,52
2007-10-07 - 2007-10-13,56
2007-10-14 - 2007-10-20,57
2007-10-21 - 2007-10-27,45
2007-10-28 - 2007-11-03,40
2007-11-04 - 2007-11-10,52
2007-11-11 - 2007-11-17,54
2007-11-18 - 2007-11-24,49
2007-11-25 - 2007-12-01,50
2007-12-02 - 2007-12-08,54
2007-12-09 - 2007-12-15,41
2007-12-16 - 2007-12-22,41
2007-12-23 - 2007-12-29,57
2007-12-30 - 2008-01-05,75
2008-01-06 - 2008-01-12,50
2008-01-13 - 2008-01-19,58
2008-01-20 - 2008-01-26,57
2008-01-27 - 2008-02-02,56
2008-02-03 - 2008-02-09,60
2008-02-10 - 2008-02-16,56
2008-02-17 - 2008-02-23,58
2008-02-24 - 2008-03-01,53
2008-03-02 - 2008-03-08,55
2008-03-09 - 2008-03-15,58
2008-03-16 - 2008-03-22,58
2008-03-23 - 2008-03-29,55
2008-03-30 - 2008-04-05,62
2008-04-06 - 2008-04-12,60
2008-04-13 - 2008-04-19,47
2008-04-20 - 2008-04-26,54
2008-04-27 - 2008-05-03,53
2008-05-04 - 2008-05-10,57
2008-05-11 - 2008-05-17,54
2008-05-18 - 2008-05-24,49
2008-05-25 - 2008-05-31,56
2008-06-01 - 2008-06-07,46
2008-06-08 - 2008-06-14,52
2008-06-15 - 2008-06-21,58
2008-06-22 - 2008-06-28,60
2008-06-29 - 2008-07-05,55
2008-07-06 - 2008-07-12,57
2008-07-13 - 2008-07-19,55
2008-07-20 - 2008-07-26,54
2008-07-27 - 2008-08-02,60
2008-08-03 - 2008-08-09,63
2008-08-10 - 2008-08-16,61
2008-08-17 - 2008-08-23,59
2008-08-24 - 2008-08-30,49
2008-08-31 - 2008-09-06,50
2008-09-07 - 2008-09-13,49
2008-09-14 - 2008-09-20,49
2008-09-21 - 2008-09-27,44
2008-09-28 - 2008-10-04,49
2008-10-05 - 2008-10-11,48
2008-10-12 - 2008-10-18,46
2008-10-19 - 2008-10-25,45
2008-10-26 - 2008-11-01,42
2008-11-02 - 2008-11-08,49
2008-11-09 - 2008-11-15,56
2008-11-16 - 2008-11-22,50
2008-11-23 - 2008-11-29,53
2008-11-30 - 2008-12-06,50
2008-12-07 - 2008-12-13,45
2008-12-14 - 2008-12-20,44
2008-12-21 - 2008-12-27,54
2008-12-28 - 2009-01-03,73
2009-01-04 - 2009-01-10,60
2009-01-11 - 2009-01-17,60
2009-01-18 - 2009-01-24,53
2009-01-25 - 2009-01-31,57
2009-02-01 - 2009-02-07,50
2009-02-08 - 2009-02-14,51
2009-02-15 - 2009-02-21,58
2009-02-22 - 2009-02-28,52
2009-03-01 - 2009-03-07,53
2009-03-08 - 2009-03-14,59
2009-03-15 - 2009-03-21,59
2009-03-22 - 2009-03-28,54
2009-03-29 - 2009-04-04,57
2009-04-05 - 2009-04-11,61
2009-04-12 - 2009-04-18,53
2009-04-19 - 2009-04-25,55
2009-04-26 - 2009-05-02,53
2009-05-03 - 2009-05-09,52
2009-05-10 - 2009-05-16,48
2009-05-17 - 2009-05-23,49
2009-05-24 - 2009-05-30,51
2009-05-31 - 2009-06-06,48
2009-06-07 - 2009-06-13,50
2009-06-14 - 2009-06-20,49
2009-06-21 - 2009-06-27,54
2009-06-28 - 2009-07-04,52
2009-07-05 - 2009-07-11,55
2009-07-12 - 2009-07-18,55
2009-07-19 - 2009-07-25,57
2009-07-26 - 2009-08-01,61
2009-08-02 - 2009-08-08,53
2009-08-09 - 2009-08-15,58
2009-08-16 - 2009-08-22,61
2009-08-23 - 2009-08-29,54
2009-08-30 - 2009-09-05,59
2009-09-06 - 2009-09-12,58
2009-09-13 - 2009-09-19,56
2009-09-20 - 2009-09-26,62
2009-09-27 - 2009-10-03,60
2009-10-04 - 2009-10-10,58
2009-10-11 - 2009-10-17,62
2009-10-18 - 2009-10-24,62
2009-10-25 - 2009-10-31,57
2009-11-01 - 2009-11-07,55
2009-11-08 - 2009-11-14,57
2009-11-15 - 2009-11-21,57
2009-11-22 - 2009-11-28,63
2009-11-29 - 2009-12-05,60
2009-12-06 - 2009-12-12,51
2009-12-13 - 2009-12-19,51
2009-12-20 - 2009-12-26,47
2009-12-27 - 2010-01-02,77
2010-01-03 - 2010-01-09,66
2010-01-10 - 2010-01-16,59
2010-01-17 - 2010-01-23,68
2010-01-24 - 2010-01-30,65
2010-01-31 - 2010-02-06,61
2010-02-07 - 2010-02-13,60
2010-02-14 - 2010-02-20,58
2010-02-21 - 2010-02-27,66
2010-02-28 - 2010-03-06,64
2010-03-07 - 2010-03-13,65
2010-03-14 - 2010-03-20,61
2010-03-21 - 2010-03-27,60
2010-03-28 - 2010-04-03,61
2010-04-04 - 2010-04-10,58
2010-04-11 - 2010-04-17,60
2010-04-18 - 2010-04-24,63
2010-04-25 - 2010-05-01,68
2010-05-02 - 2010-05-08,58
2010-05-09 - 2010-05-15,61
2010-05-16 - 2010-05-22,56
2010-05-23 - 2010-05-29,55
2010-05-30 - 2010-06-05,55
2010-06-06 - 2010-06-12,56
2010-06-13 - 2010-06-19,51
2010-06-20 - 2010-06-26,59
2010-06-27 - 2010-07-03,60
2010-07-04 - 2010-07-10,61
2010-07-11 - 2010-07-17,62
2010-07-18 - 2010-07-24,60
2010-07-25 - 2010-07-31,58
2010-08-01 - 2010-08-07,62
2010-08-08 - 2010-08-14,64
2010-08-15 - 2010-08-21,62
2010-08-22 - 2010-08-28,57
2010-08-29 - 2010-09-04,54
2010-09-05 - 2010-09-11,57
2010-09-12 - 2010-09-18,52
2010-09-19 - 2010-09-25,53
2010-09-26 - 2010-10-02,54
2010-10-03 - 2010-10-09,55
2010-10-10 - 2010-10-16,52
2010-10-17 - 2010-10-23,56
2010-10-24 - 2010-10-30,58
2010-10-31 - 2010-11-06,56
2010-11-07 - 2010-11-13,57
2010-11-14 - 2010-11-20,61
2010-11-21 - 2010-11-27,60
2010-11-28 - 2010-12-04,62
2010-12-05 - 2010-12-11,60
2010-12-12 - 2010-12-18,58
2010-12-19 - 2010-12-25,52
2010-12-26 - 2011-01-01,73
2011-01-02 - 2011-01-08,70
2011-01-09 - 2011-01-15,68
2011-01-16 - 2011-01-22,67
2011-01-23 - 2011-01-29,60
2011-01-30 - 2011-02-05,64
2011-02-06 - 2011-02-12,60
2011-02-13 - 2011-02-19,59
2011-02-20 - 2011-02-26,63
2011-02-27 - 2011-03-05,63
2011-03-06 - 2011-03-12,61
2011-03-13 - 2011-03-19,59
2011-03-20 - 2011-03-26,66
2011-03-27 - 2011-04-02,67
2011-04-03 - 2011-04-09,63
2011-04-10 - 2011-04-16,62
2011-04-17 - 2011-04-23,71
2011-04-24 - 2011-04-30,59
2011-05-01 - 2011-05-07,56
2011-05-08 - 2011-05-14,59
2011-05-15 - 2011-05-21,60
2011-05-22 - 2011-05-28,56
2011-05-29 - 2011-06-04,57
2011-06-05 - 2011-06-11,52
2011-06-12 - 2011-06-18,58
2011-06-19 - 2011-06-25,55
2011-06-26 - 2011-07-02,53
2011-07-03 - 2011-07-09,60
2011-07-10 - 2011-07-16,65
2011-07-17 - 2011-07-23,60
2011-07-24 - 2011-07-30,59
2011-07-31 - 2011-08-06,61
2011-08-07 - 2011-08-13,58
2011-08-14 - 2011-08-20,57
2011-08-21 - 2011-08-27,54
2011-08-28 - 2011-09-03,57
2011-09-04 - 2011-09-10,54
2011-09-11 - 2011-09-17,56
2011-09-18 - 2011-09-24,55
2011-09-25 - 2011-10-01,58
2011-10-02 - 2011-10-08,55
2011-10-09 - 2011-10-15,54
2011-10-16 - 2011-10-22,58
2011-10-23 - 2011-10-29,55
2011-10-30 - 2011-11-05,59
2011-11-06 - 2011-11-12,59
2011-11-13 - 2011-11-19,66
2011-11-20 - 2011-11-26,67
2011-11-27 - 2011-12-03,66
2011-12-04 - 2011-12-10,62
2011-12-11 - 2011-12-17,61
2011-12-18 - 2011-12-24,55
2011-12-25 - 2011-12-31,74
2012-01-01 - 2012-01-07,71
2012-01-08 - 2012-01-14,65
2012-01-15 - 2012-01-21,63
2012-01-22 - 2012-01-28,63
2012-01-29 - 2012-02-04,64
2012-02-05 - 2012-02-11,64
2012-02-12 - 2012-02-18,64
2012-02-19 - 2012-02-25,65
2012-02-26 - 2012-03-03,65
2012-03-04 - 2012-03-10,65
2012-03-11 - 2012-03-17,64
2012-03-18 - 2012-03-24,64
2012-03-25 - 2012-03-31,61
2012-04-01 - 2012-04-07,63
2012-04-08 - 2012-04-14,62
2012-04-15 - 2012-04-21,64
2012-04-22 - 2012-04-28,67
2012-04-29 - 2012-05-05,66
2012-05-06 - 2012-05-12,60
2012-05-13 - 2012-05-19,58
2012-05-20 - 2012-05-26,60
2012-05-27 - 2012-06-02,60
2012-06-03 - 2012-06-09,60
2012-06-10 - 2012-06-16,57
2012-06-17 - 2012-06-23,60
2012-06-24 - 2012-06-30,61
2012-07-01 - 2012-07-07,68
2012-07-08 - 2012-07-14,63
2012-07-15 - 2012-07-21,68
2012-07-22 - 2012-07-28,71
2012-07-29 - 2012-08-04,66
2012-08-05 - 2012-08-11,69
2012-08-12 - 2012-08-18,68
2012-08-19 - 2012-08-25,73
2012-08-26 - 2012-09-01,64
2012-09-02 - 2012-09-08,69
2012-09-09 - 2012-09-15,66
2012-09-16 - 2012-09-22,64
2012-09-23 - 2012-09-29,63
2012-09-30 - 2012-10-06,62
2012-10-07 - 2012-10-13,62
2012-10-14 - 2012-10-20,62
2012-10-21 - 2012-10-27,66
2012-10-28 - 2012-11-03,59
2012-11-04 - 2012-11-10,63
2012-11-11 - 2012-11-17,63
2012-11-18 - 2012-11-24,68
2012-11-25 - 2012-12-01,68
2012-12-02 - 2012-12-08,63
2012-12-09 - 2012-12-15,63
2012-12-16 - 2012-12-22,59
2012-12-23 - 2012-12-29,70
2012-12-30 - 2013-01-05,86
2013-01-06 - 2013-01-12,75
2013-01-13 - 2013-01-19,80
2013-01-20 - 2013-01-26,78
2013-01-27 - 2013-02-02,72
2013-02-03 - 2013-02-09,70
2013-02-10 - 2013-02-16,69
2013-02-17 - 2013-02-23,74
2013-02-24 - 2013-03-02,68
2013-03-03 - 2013-03-09,72
2013-03-10 - 2013-03-16,74
2013-03-17 - 2013-03-23,73
2013-03-24 - 2013-03-30,75
2013-03-31 - 2013-04-06,72
2013-04-07 - 2013-04-13,72
2013-04-14 - 2013-04-20,69
2013-04-21 - 2013-04-27,70
2013-04-28 - 2013-05-04,70
2013-05-05 - 2013-05-11,70
2013-05-12 - 2013-05-18,62
2013-05-19 - 2013-05-25,68
2013-05-26 - 2013-06-01,68
2013-06-02 - 2013-06-08,70
2013-06-09 - 2013-06-15,69
2013-06-16 - 2013-06-22,63
2013-06-23 - 2013-06-29,71
2013-06-30 - 2013-07-06,67
2013-07-07 - 2013-07-13,67
2013-07-14 - 2013-07-20,70
2013-07-21 - 2013-07-27,69
2013-07-28 - 2013-08-03,69
2013-08-04 - 2013-08-10,72
2013-08-11 - 2013-08-17,68
2013-08-18 - 2013-08-24,73
2013-08-25 - 2013-08-31,68
2013-09-01 - 2013-09-07,71
2013-09-08 - 2013-09-14,67
2013-09-15 - 2013-09-21,64
2013-09-22 - 2013-09-28,68
2013-09-29 - 2013-10-05,66
2013-10-06 - 2013-10-12,67
2013-10-13 - 2013-10-19,71
2013-10-20 - 2013-10-26,73
2013-10-27 - 2013-11-02,72
2013-11-03 - 2013-11-09,73
2013-11-10 - 2013-11-16,72
2013-11-17 - 2013-11-23,76
2013-11-24 - 2013-11-30,74
2013-12-01 - 2013-12-07,73
2013-12-08 - 2013-12-14,68
2013-12-15 - 2013-12-21,64
2013-12-22 - 2013-12-28,70
2013-12-29 - 2014-01-04,91
2014-01-05 - 2014-01-11,88
2014-01-12 - 2014-01-18,79
2014-01-19 - 2014-01-25,80
2014-01-26 - 2014-02-01,80
2014-02-02 - 2014-02-08,74
2014-02-09 - 2014-02-15,74
2014-02-16 - 2014-02-22,75
2014-02-23 - 2014-03-01,82
2014-03-02 - 2014-03-08,78
2014-03-09 - 2014-03-15,75
2014-03-16 - 2014-03-22,72
2014-03-23 - 2014-03-29,77
2014-03-30 - 2014-04-05,76
2014-04-06 - 2014-04-12,73
2014-04-13 - 2014-04-19,74
2014-04-20 - 2014-04-26,73
2014-04-27 - 2014-05-03,74
2014-05-04 - 2014-05-10,73
2014-05-11 - 2014-05-17,66
2014-05-18 - 2014-05-24,67
2014-05-25 - 2014-05-31,66
2014-06-01 - 2014-06-07,70
2014-06-08 - 2014-06-14,70
2014-06-15 - 2014-06-21,69
2014-06-22 - 2014-06-28,71
2014-06-29 - 2014-07-05,70
2014-07-06 - 2014-07-12,72
2014-07-13 - 2014-07-19,75
2014-07-20 - 2014-07-26,77
2014-07-27 - 2014-08-02,77
2014-08-03 - 2014-08-09,74
2014-08-10 - 2014-08-16,78
2014-08-17 - 2014-08-23,81
2014-08-24 - 2014-08-30,70
2014-08-31 - 2014-09-06,74
2014-09-07 - 2014-09-13,69
2014-09-14 - 2014-09-20,66
2014-09-21 - 2014-09-27,66
2014-09-28 - 2014-10-04,72
2014-10-05 - 2014-10-11,71
2014-10-12 - 2014-10-18,73
2014-10-19 - 2014-10-25,75
2014-10-26 - 2014-11-01,74
2014-11-02 - 2014-11-08,72
2014-11-09 - 2014-11-15,76
2014-11-16 - 2014-11-22,78
2014-11-23 - 2014-11-29,73
2014-11-30 - 2014-12-06,73
2014-12-07 - 2014-12-13,73
2014-12-14 - 2014-12-20,68
2014-12-21 - 2014-12-27,72
2014-12-28 - 2015-01-03,92
2015-01-04 - 2015-01-10,82
2015-01-11 - 2015-01-17,79
2015-01-18 - 2015-01-24,82
2015-01-25 - 2015-01-31,78
2015-02-01 - 2015-02-07,75
2015-02-08 - 2015-02-14,77
2015-02-15 - 2015-02-21,87
2015-02-22 - 2015-02-28,81
2015-03-01 - 2015-03-07,79
2015-03-08 - 2015-03-14,80
2015-03-15 - 2015-03-21,81
2015-03-22 - 2015-03-28,77
2015-03-29 - 2015-04-04,76
2015-04-05 - 2015-04-11,81
2015-04-12 - 2015-04-18,74
2015-04-19 - 2015-04-25,82
2015-04-26 - 2015-05-02,78
2015-05-03 - 2015-05-09,71
2015-05-10 - 2015-05-16,71
2015-05-17 - 2015-05-23,74
2015-05-24 - 2015-05-30,77
2015-05-31 - 2015-06-06,80
2015-06-07 - 2015-06-13,75
2015-06-14 - 2015-06-20,75
2015-06-21 - 2015-06-27,72
2015-06-28 - 2015-07-04,78
2015-07-05 - 2015-07-11,79
2015-07-12 - 2015-07-18,82
2015-07-19 - 2015-07-25,81
2015-07-26 - 2015-08-01,80
2015-08-02 - 2015-08-08,80
2015-08-09 - 2015-08-15,79
2015-08-16 - 2015-08-22,81
2015-08-23 - 2015-08-29,78
2015-08-30 - 2015-09-05,75
2015-09-06 - 2015-09-12,82
2015-09-13 - 2015-09-19,74
2015-09-20 - 2015-09-26,76
2015-09-27 - 2015-10-03,77
2015-10-04 - 2015-10-10,76
2015-10-11 - 2015-10-17,74
2015-10-18 - 2015-10-24,75
2015-10-25 - 2015-10-31,78
2015-11-01 - 2015-11-07,80
2015-11-08 - 2015-11-14,84
2015-11-15 - 2015-11-21,81
2015-11-22 - 2015-11-28,81
2015-11-29 - 2015-12-05,81
2015-12-06 - 2015-12-12,80
2015-12-13 - 2015-12-19,79
2015-12-20 - 2015-12-26,78
2015-12-27 - 2016-01-02,100
