Week,oakley sunglasses
2006-01-01 - 2006-01-07,28
2006-01-08 - 2006-01-14,26
2006-01-15 - 2006-01-21,25
2006-01-22 - 2006-01-28,28
2006-01-29 - 2006-02-04,32
2006-02-05 - 2006-02-11,34
2006-02-12 - 2006-02-18,38
2006-02-19 - 2006-02-25,36
2006-02-26 - 2006-03-04,41
2006-03-05 - 2006-03-11,40
2006-03-12 - 2006-03-18,38
2006-03-19 - 2006-03-25,39
2006-03-26 - 2006-04-01,42
2006-04-02 - 2006-04-08,48
2006-04-09 - 2006-04-15,54
2006-04-16 - 2006-04-22,55
2006-04-23 - 2006-04-29,48
2006-04-30 - 2006-05-06,54
2006-05-07 - 2006-05-13,53
2006-05-14 - 2006-05-20,48
2006-05-21 - 2006-05-27,50
2006-05-28 - 2006-06-03,55
2006-06-04 - 2006-06-10,61
2006-06-11 - 2006-06-17,66
2006-06-18 - 2006-06-24,63
2006-06-25 - 2006-07-01,55
2006-07-02 - 2006-07-08,64
2006-07-09 - 2006-07-15,63
2006-07-16 - 2006-07-22,75
2006-07-23 - 2006-07-29,67
2006-07-30 - 2006-08-05,48
2006-08-06 - 2006-08-12,51
2006-08-13 - 2006-08-19,50
2006-08-20 - 2006-08-26,42
2006-08-27 - 2006-09-02,34
2006-09-03 - 2006-09-09,35
2006-09-10 - 2006-09-16,34
2006-09-17 - 2006-09-23,31
2006-09-24 - 2006-09-30,27
2006-10-01 - 2006-10-07,25
2006-10-08 - 2006-10-14,29
2006-10-15 - 2006-10-21,24
2006-10-22 - 2006-10-28,22
2006-10-29 - 2006-11-04,24
2006-11-05 - 2006-11-11,25
2006-11-12 - 2006-11-18,24
2006-11-19 - 2006-11-25,27
2006-11-26 - 2006-12-02,31
2006-12-03 - 2006-12-09,34
2006-12-10 - 2006-12-16,34
2006-12-17 - 2006-12-23,30
2006-12-24 - 2006-12-30,32
2006-12-31 - 2007-01-06,22
2007-01-07 - 2007-01-13,23
2007-01-14 - 2007-01-20,25
2007-01-21 - 2007-01-27,27
2007-01-28 - 2007-02-03,30
2007-02-04 - 2007-02-10,32
2007-02-11 - 2007-02-17,32
2007-02-18 - 2007-02-24,39
2007-02-25 - 2007-03-03,38
2007-03-04 - 2007-03-10,44
2007-03-11 - 2007-03-17,52
2007-03-18 - 2007-03-24,49
2007-03-25 - 2007-03-31,53
2007-04-01 - 2007-04-07,58
2007-04-08 - 2007-04-14,60
2007-04-15 - 2007-04-21,58
2007-04-22 - 2007-04-28,60
2007-04-29 - 2007-05-05,71
2007-05-06 - 2007-05-12,61
2007-05-13 - 2007-05-19,63
2007-05-20 - 2007-05-26,59
2007-05-27 - 2007-06-02,67
2007-06-03 - 2007-06-09,70
2007-06-10 - 2007-06-16,67
2007-06-17 - 2007-06-23,69
2007-06-24 - 2007-06-30,68
2007-07-01 - 2007-07-07,59
2007-07-08 - 2007-07-14,64
2007-07-15 - 2007-07-21,67
2007-07-22 - 2007-07-28,61
2007-07-29 - 2007-08-04,63
2007-08-05 - 2007-08-11,62
2007-08-12 - 2007-08-18,56
2007-08-19 - 2007-08-25,47
2007-08-26 - 2007-09-01,48
2007-09-02 - 2007-09-08,42
2007-09-09 - 2007-09-15,40
2007-09-16 - 2007-09-22,40
2007-09-23 - 2007-09-29,34
2007-09-30 - 2007-10-06,35
2007-10-07 - 2007-10-13,30
2007-10-14 - 2007-10-20,29
2007-10-21 - 2007-10-27,29
2007-10-28 - 2007-11-03,30
2007-11-04 - 2007-11-10,31
2007-11-11 - 2007-11-17,29
2007-11-18 - 2007-11-24,31
2007-11-25 - 2007-12-01,31
2007-12-02 - 2007-12-08,38
2007-12-09 - 2007-12-15,37
2007-12-16 - 2007-12-22,36
2007-12-23 - 2007-12-29,31
2007-12-30 - 2008-01-05,31
2008-01-06 - 2008-01-12,28
2008-01-13 - 2008-01-19,27
2008-01-20 - 2008-01-26,29
2008-01-27 - 2008-02-02,31
2008-02-03 - 2008-02-09,33
2008-02-10 - 2008-02-16,37
2008-02-17 - 2008-02-23,37
2008-02-24 - 2008-03-01,37
2008-03-02 - 2008-03-08,40
2008-03-09 - 2008-03-15,43
2008-03-16 - 2008-03-22,44
2008-03-23 - 2008-03-29,45
2008-03-30 - 2008-04-05,42
2008-04-06 - 2008-04-12,49
2008-04-13 - 2008-04-19,54
2008-04-20 - 2008-04-26,53
2008-04-27 - 2008-05-03,55
2008-05-04 - 2008-05-10,61
2008-05-11 - 2008-05-17,65
2008-05-18 - 2008-05-24,55
2008-05-25 - 2008-05-31,50
2008-06-01 - 2008-06-07,54
2008-06-08 - 2008-06-14,59
2008-06-15 - 2008-06-21,55
2008-06-22 - 2008-06-28,55
2008-06-29 - 2008-07-05,56
2008-07-06 - 2008-07-12,51
2008-07-13 - 2008-07-19,48
2008-07-20 - 2008-07-26,53
2008-07-27 - 2008-08-02,56
2008-08-03 - 2008-08-09,48
2008-08-10 - 2008-08-16,52
2008-08-17 - 2008-08-23,48
2008-08-24 - 2008-08-30,42
2008-08-31 - 2008-09-06,38
2008-09-07 - 2008-09-13,31
2008-09-14 - 2008-09-20,31
2008-09-21 - 2008-09-27,32
2008-09-28 - 2008-10-04,29
2008-10-05 - 2008-10-11,27
2008-10-12 - 2008-10-18,29
2008-10-19 - 2008-10-25,27
2008-10-26 - 2008-11-01,23
2008-11-02 - 2008-11-08,23
2008-11-09 - 2008-11-15,24
2008-11-16 - 2008-11-22,26
2008-11-23 - 2008-11-29,29
2008-11-30 - 2008-12-06,33
2008-12-07 - 2008-12-13,34
2008-12-14 - 2008-12-20,33
2008-12-21 - 2008-12-27,31
2008-12-28 - 2009-01-03,32
2009-01-04 - 2009-01-10,26
2009-01-11 - 2009-01-17,25
2009-01-18 - 2009-01-24,29
2009-01-25 - 2009-01-31,27
2009-02-01 - 2009-02-07,30
2009-02-08 - 2009-02-14,31
2009-02-15 - 2009-02-21,35
2009-02-22 - 2009-02-28,37
2009-03-01 - 2009-03-07,41
2009-03-08 - 2009-03-14,43
2009-03-15 - 2009-03-21,47
2009-03-22 - 2009-03-28,51
2009-03-29 - 2009-04-04,51
2009-04-05 - 2009-04-11,63
2009-04-12 - 2009-04-18,59
2009-04-19 - 2009-04-25,64
2009-04-26 - 2009-05-02,62
2009-05-03 - 2009-05-09,56
2009-05-10 - 2009-05-16,59
2009-05-17 - 2009-05-23,58
2009-05-24 - 2009-05-30,59
2009-05-31 - 2009-06-06,71
2009-06-07 - 2009-06-13,66
2009-06-14 - 2009-06-20,42
2009-06-21 - 2009-06-27,41
2009-06-28 - 2009-07-04,45
2009-07-05 - 2009-07-11,43
2009-07-12 - 2009-07-18,41
2009-07-19 - 2009-07-25,37
2009-07-26 - 2009-08-01,38
2009-08-02 - 2009-08-08,34
2009-08-09 - 2009-08-15,32
2009-08-16 - 2009-08-22,33
2009-08-23 - 2009-08-29,28
2009-08-30 - 2009-09-05,23
2009-09-06 - 2009-09-12,24
2009-09-13 - 2009-09-19,21
2009-09-20 - 2009-09-26,19
2009-09-27 - 2009-10-03,17
2009-10-04 - 2009-10-10,17
2009-10-11 - 2009-10-17,16
2009-10-18 - 2009-10-24,15
2009-10-25 - 2009-10-31,14
2009-11-01 - 2009-11-07,17
2009-11-08 - 2009-11-14,15
2009-11-15 - 2009-11-21,15
2009-11-22 - 2009-11-28,17
2009-11-29 - 2009-12-05,20
2009-12-06 - 2009-12-12,20
2009-12-13 - 2009-12-19,20
2009-12-20 - 2009-12-26,19
2009-12-27 - 2010-01-02,16
2010-01-03 - 2010-01-09,15
2010-01-10 - 2010-01-16,16
2010-01-17 - 2010-01-23,15
2010-01-24 - 2010-01-30,22
2010-01-31 - 2010-02-06,25
2010-02-07 - 2010-02-13,25
2010-02-14 - 2010-02-20,30
2010-02-21 - 2010-02-27,32
2010-02-28 - 2010-03-06,35
2010-03-07 - 2010-03-13,35
2010-03-14 - 2010-03-20,39
2010-03-21 - 2010-03-27,42
2010-03-28 - 2010-04-03,45
2010-04-04 - 2010-04-10,49
2010-04-11 - 2010-04-17,54
2010-04-18 - 2010-04-24,51
2010-04-25 - 2010-05-01,54
2010-05-02 - 2010-05-08,51
2010-05-09 - 2010-05-15,46
2010-05-16 - 2010-05-22,48
2010-05-23 - 2010-05-29,58
2010-05-30 - 2010-06-05,60
2010-06-06 - 2010-06-12,56
2010-06-13 - 2010-06-19,56
2010-06-20 - 2010-06-26,61
2010-06-27 - 2010-07-03,63
2010-07-04 - 2010-07-10,68
2010-07-11 - 2010-07-17,64
2010-07-18 - 2010-07-24,63
2010-07-25 - 2010-07-31,60
2010-08-01 - 2010-08-07,51
2010-08-08 - 2010-08-14,52
2010-08-15 - 2010-08-21,49
2010-08-22 - 2010-08-28,42
2010-08-29 - 2010-09-04,41
2010-09-05 - 2010-09-11,41
2010-09-12 - 2010-09-18,36
2010-09-19 - 2010-09-25,34
2010-09-26 - 2010-10-02,32
2010-10-03 - 2010-10-09,33
2010-10-10 - 2010-10-16,56
2010-10-17 - 2010-10-23,37
2010-10-24 - 2010-10-30,30
2010-10-31 - 2010-11-06,31
2010-11-07 - 2010-11-13,32
2010-11-14 - 2010-11-20,35
2010-11-21 - 2010-11-27,38
2010-11-28 - 2010-12-04,40
2010-12-05 - 2010-12-11,43
2010-12-12 - 2010-12-18,45
2010-12-19 - 2010-12-25,40
2010-12-26 - 2011-01-01,40
2011-01-02 - 2011-01-08,32
2011-01-09 - 2011-01-15,36
2011-01-16 - 2011-01-22,37
2011-01-23 - 2011-01-29,40
2011-01-30 - 2011-02-05,39
2011-02-06 - 2011-02-12,39
2011-02-13 - 2011-02-19,45
2011-02-20 - 2011-02-26,44
2011-02-27 - 2011-03-05,48
2011-03-06 - 2011-03-12,48
2011-03-13 - 2011-03-19,50
2011-03-20 - 2011-03-26,58
2011-03-27 - 2011-04-02,55
2011-04-03 - 2011-04-09,64
2011-04-10 - 2011-04-16,71
2011-04-17 - 2011-04-23,74
2011-04-24 - 2011-04-30,70
2011-05-01 - 2011-05-07,68
2011-05-08 - 2011-05-14,73
2011-05-15 - 2011-05-21,66
2011-05-22 - 2011-05-28,71
2011-05-29 - 2011-06-04,85
2011-06-05 - 2011-06-11,86
2011-06-12 - 2011-06-18,88
2011-06-19 - 2011-06-25,88
2011-06-26 - 2011-07-02,89
2011-07-03 - 2011-07-09,100
2011-07-10 - 2011-07-16,94
2011-07-17 - 2011-07-23,91
2011-07-24 - 2011-07-30,89
2011-07-31 - 2011-08-06,85
2011-08-07 - 2011-08-13,77
2011-08-14 - 2011-08-20,72
2011-08-21 - 2011-08-27,68
2011-08-28 - 2011-09-03,64
2011-09-04 - 2011-09-10,54
2011-09-11 - 2011-09-17,50
2011-09-18 - 2011-09-24,46
2011-09-25 - 2011-10-01,46
2011-10-02 - 2011-10-08,43
2011-10-09 - 2011-10-15,40
2011-10-16 - 2011-10-22,37
2011-10-23 - 2011-10-29,39
2011-10-30 - 2011-11-05,36
2011-11-06 - 2011-11-12,38
2011-11-13 - 2011-11-19,39
2011-11-20 - 2011-11-26,42
2011-11-27 - 2011-12-03,45
2011-12-04 - 2011-12-10,50
2011-12-11 - 2011-12-17,50
2011-12-18 - 2011-12-24,46
2011-12-25 - 2011-12-31,45
2012-01-01 - 2012-01-07,38
2012-01-08 - 2012-01-14,36
2012-01-15 - 2012-01-21,34
2012-01-22 - 2012-01-28,35
2012-01-29 - 2012-02-04,38
2012-02-05 - 2012-02-11,40
2012-02-12 - 2012-02-18,41
2012-02-19 - 2012-02-25,46
2012-02-26 - 2012-03-03,45
2012-03-04 - 2012-03-10,47
2012-03-11 - 2012-03-17,56
2012-03-18 - 2012-03-24,62
2012-03-25 - 2012-03-31,71
2012-04-01 - 2012-04-07,70
2012-04-08 - 2012-04-14,73
2012-04-15 - 2012-04-21,72
2012-04-22 - 2012-04-28,73
2012-04-29 - 2012-05-05,86
2012-05-06 - 2012-05-12,77
2012-05-13 - 2012-05-19,80
2012-05-20 - 2012-05-26,93
2012-05-27 - 2012-06-02,100
2012-06-03 - 2012-06-09,88
2012-06-10 - 2012-06-16,93
2012-06-17 - 2012-06-23,94
2012-06-24 - 2012-06-30,94
2012-07-01 - 2012-07-07,95
2012-07-08 - 2012-07-14,96
2012-07-15 - 2012-07-21,89
2012-07-22 - 2012-07-28,92
2012-07-29 - 2012-08-04,96
2012-08-05 - 2012-08-11,95
2012-08-12 - 2012-08-18,80
2012-08-19 - 2012-08-25,71
2012-08-26 - 2012-09-01,59
2012-09-02 - 2012-09-08,56
2012-09-09 - 2012-09-15,49
2012-09-16 - 2012-09-22,48
2012-09-23 - 2012-09-29,46
2012-09-30 - 2012-10-06,50
2012-10-07 - 2012-10-13,45
2012-10-14 - 2012-10-20,41
2012-10-21 - 2012-10-27,41
2012-10-28 - 2012-11-03,38
2012-11-04 - 2012-11-10,39
2012-11-11 - 2012-11-17,42
2012-11-18 - 2012-11-24,49
2012-11-25 - 2012-12-01,52
2012-12-02 - 2012-12-08,49
2012-12-09 - 2012-12-15,50
2012-12-16 - 2012-12-22,46
2012-12-23 - 2012-12-29,47
2012-12-30 - 2013-01-05,39
2013-01-06 - 2013-01-12,38
2013-01-13 - 2013-01-19,37
2013-01-20 - 2013-01-26,40
2013-01-27 - 2013-02-02,42
2013-02-03 - 2013-02-09,42
2013-02-10 - 2013-02-16,46
2013-02-17 - 2013-02-23,49
2013-02-24 - 2013-03-02,49
2013-03-03 - 2013-03-09,52
2013-03-10 - 2013-03-16,55
2013-03-17 - 2013-03-23,59
2013-03-24 - 2013-03-30,64
2013-03-31 - 2013-04-06,65
2013-04-07 - 2013-04-13,65
2013-04-14 - 2013-04-20,68
2013-04-21 - 2013-04-27,75
2013-04-28 - 2013-05-04,79
2013-05-05 - 2013-05-11,79
2013-05-12 - 2013-05-18,73
2013-05-19 - 2013-05-25,73
2013-05-26 - 2013-06-01,80
2013-06-02 - 2013-06-08,83
2013-06-09 - 2013-06-15,81
2013-06-16 - 2013-06-22,83
2013-06-23 - 2013-06-29,79
2013-06-30 - 2013-07-06,84
2013-07-07 - 2013-07-13,88
2013-07-14 - 2013-07-20,93
2013-07-21 - 2013-07-27,86
2013-07-28 - 2013-08-03,76
2013-08-04 - 2013-08-10,71
2013-08-11 - 2013-08-17,63
2013-08-18 - 2013-08-24,59
2013-08-25 - 2013-08-31,56
2013-09-01 - 2013-09-07,54
2013-09-08 - 2013-09-14,46
2013-09-15 - 2013-09-21,42
2013-09-22 - 2013-09-28,39
2013-09-29 - 2013-10-05,40
2013-10-06 - 2013-10-12,38
2013-10-13 - 2013-10-19,38
2013-10-20 - 2013-10-26,34
2013-10-27 - 2013-11-02,33
2013-11-03 - 2013-11-09,37
2013-11-10 - 2013-11-16,37
2013-11-17 - 2013-11-23,38
2013-11-24 - 2013-11-30,36
2013-12-01 - 2013-12-07,39
2013-12-08 - 2013-12-14,37
2013-12-15 - 2013-12-21,38
2013-12-22 - 2013-12-28,38
2013-12-29 - 2014-01-04,32
2014-01-05 - 2014-01-11,28
2014-01-12 - 2014-01-18,28
2014-01-19 - 2014-01-25,29
2014-01-26 - 2014-02-01,29
2014-02-02 - 2014-02-08,31
2014-02-09 - 2014-02-15,35
2014-02-16 - 2014-02-22,39
2014-02-23 - 2014-03-01,42
2014-03-02 - 2014-03-08,40
2014-03-09 - 2014-03-15,49
2014-03-16 - 2014-03-22,49
2014-03-23 - 2014-03-29,51
2014-03-30 - 2014-04-05,57
2014-04-06 - 2014-04-12,63
2014-04-13 - 2014-04-19,71
2014-04-20 - 2014-04-26,67
2014-04-27 - 2014-05-03,67
2014-05-04 - 2014-05-10,74
2014-05-11 - 2014-05-17,76
2014-05-18 - 2014-05-24,78
2014-05-25 - 2014-05-31,82
2014-06-01 - 2014-06-07,85
2014-06-08 - 2014-06-14,87
2014-06-15 - 2014-06-21,83
2014-06-22 - 2014-06-28,78
2014-06-29 - 2014-07-05,77
2014-07-06 - 2014-07-12,84
2014-07-13 - 2014-07-19,79
2014-07-20 - 2014-07-26,81
2014-07-27 - 2014-08-02,76
2014-08-03 - 2014-08-09,74
2014-08-10 - 2014-08-16,68
2014-08-17 - 2014-08-23,62
2014-08-24 - 2014-08-30,59
2014-08-31 - 2014-09-06,56
2014-09-07 - 2014-09-13,47
2014-09-14 - 2014-09-20,46
2014-09-21 - 2014-09-27,44
2014-09-28 - 2014-10-04,43
2014-10-05 - 2014-10-11,39
2014-10-12 - 2014-10-18,36
2014-10-19 - 2014-10-25,36
2014-10-26 - 2014-11-01,36
2014-11-02 - 2014-11-08,34
2014-11-09 - 2014-11-15,36
2014-11-16 - 2014-11-22,36
2014-11-23 - 2014-11-29,42
2014-11-30 - 2014-12-06,46
2014-12-07 - 2014-12-13,43
2014-12-14 - 2014-12-20,43
2014-12-21 - 2014-12-27,44
2014-12-28 - 2015-01-03,41
2015-01-04 - 2015-01-10,35
2015-01-11 - 2015-01-17,34
2015-01-18 - 2015-01-24,36
2015-01-25 - 2015-01-31,37
2015-02-01 - 2015-02-07,39
2015-02-08 - 2015-02-14,45
2015-02-15 - 2015-02-21,42
2015-02-22 - 2015-02-28,42
2015-03-01 - 2015-03-07,46
2015-03-08 - 2015-03-14,52
2015-03-15 - 2015-03-21,52
2015-03-22 - 2015-03-28,58
2015-03-29 - 2015-04-04,61
2015-04-05 - 2015-04-11,61
2015-04-12 - 2015-04-18,63
2015-04-19 - 2015-04-25,59
2015-04-26 - 2015-05-02,62
2015-05-03 - 2015-05-09,61
2015-05-10 - 2015-05-16,62
2015-05-17 - 2015-05-23,58
2015-05-24 - 2015-05-30,61
2015-05-31 - 2015-06-06,61
2015-06-07 - 2015-06-13,66
2015-06-14 - 2015-06-20,65
2015-06-21 - 2015-06-27,64
2015-06-28 - 2015-07-04,62
2015-07-05 - 2015-07-11,61
2015-07-12 - 2015-07-18,62
2015-07-19 - 2015-07-25,62
2015-07-26 - 2015-08-01,60
2015-08-02 - 2015-08-08,56
2015-08-09 - 2015-08-15,52
2015-08-16 - 2015-08-22,48
2015-08-23 - 2015-08-29,42
2015-08-30 - 2015-09-05,34
2015-09-06 - 2015-09-12,34
2015-09-13 - 2015-09-19,32
2015-09-20 - 2015-09-26,33
2015-09-27 - 2015-10-03,31
2015-10-04 - 2015-10-10,31
2015-10-11 - 2015-10-17,32
2015-10-18 - 2015-10-24,30
2015-10-25 - 2015-10-31,29
2015-11-01 - 2015-11-07,28
2015-11-08 - 2015-11-14,30
2015-11-15 - 2015-11-21,29
2015-11-22 - 2015-11-28,39
2015-11-29 - 2015-12-05,40
2015-12-06 - 2015-12-12,38
2015-12-13 - 2015-12-19,39
2015-12-20 - 2015-12-26,39
2015-12-27 - 2016-01-02,33
