Google Flu Trends - Austria
Copyright 2015 Google Inc.

Exported data may be used for any purpose, subject to the Google Terms of Service (http://www.google.com/accounts/TOS?hl=en_US).
If you choose to use the data, please attribute it to Google as follows: "Data Source: Google Flu Trends (http://www.google.org/flutrends)".

Each week begins on the Sunday (Pacific Time) indicated for the row.
Data for the current week will be updated each day until Saturday (Pacific Time).
Note: To open these files in a spreadsheet application, we recommend you save each text file as a CSV spreadsheet.
For more information, please visit http://www.google.org/flutrends

Date,Austria,Carinthia,Lower Austria,Upper Austria,Salzburg,Styria,Tyrol,Vorarlberg,Vienna
2003-09-28,515,,,463,,,,,582
2003-10-05,752,,,482,,,,,789
2003-10-12,720,,,551,,,,,785
2003-10-19,727,,425,573,,,,,720
2003-10-26,710,,462,626,,,,,646
2003-11-02,608,,515,635,,,,,679
2003-11-09,661,,521,688,,519,,,659
2003-11-16,708,,608,677,,543,,,655
2003-11-23,822,,658,673,,589,,,825
2003-11-30,652,,695,724,,628,,,701
2003-12-07,719,,720,734,,625,,,658
2003-12-14,862,,744,733,,622,,,836
2003-12-21,824,,741,759,,601,,,809
2003-12-28,898,,760,819,,633,,,811
2004-01-04,880,,766,854,,649,,,837
2004-01-11,800,,750,944,,680,,,859
2004-01-18,973,,787,954,,792,,,967
2004-01-25,998,,818,985,,833,,,1075
2004-02-01,1016,,821,938,,877,,,1130
2004-02-08,854,,847,837,,919,,,869
2004-02-15,824,,892,782,,954,,,784
2004-02-22,738,,904,767,,966,,,705
2004-02-29,726,,840,697,,873,,,816
2004-03-07,653,,768,660,,801,,,722
2004-03-14,600,,764,641,,774,,,603
2004-03-21,628,,733,628,,776,,,591
2004-03-28,636,,683,595,,719,,,688
2004-04-04,569,,640,577,,672,,,678
2004-04-11,550,,585,559,,642,,,607
2004-04-18,531,,558,548,,644,,,584
2004-04-25,531,,536,543,,620,,,535
2004-05-02,417,,508,511,,572,,,506
2004-05-09,476,,510,495,,554,,,490
2004-05-16,425,,499,500,,528,,,456
2004-05-23,454,,472,500,,522,,,450
2004-05-30,441,,462,485,,492,,,475
2004-06-06,487,,459,479,,473,,,513
2004-06-13,485,,458,460,,459,,,555
2004-06-20,482,,447,445,,436,,,553
2004-06-27,455,,460,453,,439,,,522
2004-07-04,540,,459,460,,443,,,526
2004-07-11,459,,465,436,,417,,,530
2004-07-18,445,,469,443,,418,,,453
2004-07-25,512,,461,451,,434,,,495
2004-08-01,438,,457,457,,439,,,460
2004-08-08,455,,451,455,,443,,,454
2004-08-15,471,,439,447,,449,,,519
2004-08-22,450,,429,431,,456,,,521
2004-08-29,408,,420,425,,440,,,461
2004-09-05,443,,430,413,,450,,,448
2004-09-12,482,,426,408,,440,,,502
2004-09-19,587,,439,400,,497,,,638
2004-09-26,702,,450,413,,519,,,713
2004-10-03,732,,456,420,,530,503,,706
2004-10-10,652,,475,438,,511,518,,670
2004-10-17,707,,519,469,,557,521,,680
2004-10-24,664,,580,487,,579,532,,650
2004-10-31,660,,640,571,,606,534,,701
2004-11-07,737,,656,653,,647,541,,788
2004-11-14,808,,726,701,,652,590,,837
2004-11-21,839,,715,709,501,677,609,,887
2004-11-28,793,,740,696,518,743,627,,884
2004-12-05,742,,748,693,544,731,647,,771
2004-12-12,810,,751,707,578,755,662,,857
2004-12-19,807,,785,699,623,724,654,,886
2004-12-26,848,,847,671,651,733,676,,832
2005-01-02,769,,857,660,670,767,664,,801
2005-01-09,839,,867,663,784,755,709,,835
2005-01-16,895,,877,733,798,787,751,,906
2005-01-23,1106,,895,772,882,854,850,,1206
2005-01-30,1643,,970,1069,1062,874,1098,,1686
2005-02-06,2200,,1395,1524,1386,1170,1824,,2231
2005-02-13,2396,,2217,2018,2045,2350,2394,,2378
2005-02-20,2143,,2295,2375,2101,2655,2150,,2178
2005-02-27,1492,,2016,2166,1897,1888,1839,,1538
2005-03-06,1246,,1579,1636,1744,1533,1498,,1302
2005-03-13,1052,,1326,1415,1524,1197,1324,,1084
2005-03-20,840,,1181,1179,1293,1032,1203,,954
2005-03-27,623,,999,1000,1160,951,1072,,645
2005-04-03,629,,896,852,1022,808,935,,667
2005-04-10,552,,809,767,930,722,857,,555
2005-04-17,578,,736,700,852,637,781,,598
2005-04-24,619,,697,671,817,594,745,,625
2005-05-01,506,,648,611,759,550,679,,542
2005-05-08,589,,587,617,708,544,644,,584
2005-05-15,579,,550,632,656,551,632,,479
2005-05-22,420,,514,591,612,539,597,,484
2005-05-29,518,,475,591,570,537,556,,600
2005-06-05,519,,451,563,556,578,542,,472
2005-06-12,479,,433,528,523,556,518,,540
2005-06-19,503,,411,553,516,529,516,,518
2005-06-26,462,,411,523,514,463,504,,472
2005-07-03,414,,434,476,493,439,499,,409
2005-07-10,512,,474,501,468,440,476,,450
2005-07-17,485,,484,521,464,430,476,,472
2005-07-24,462,,510,521,460,422,475,,439
2005-07-31,479,,550,517,449,395,450,,437
2005-08-07,455,,558,529,438,372,434,,439
2005-08-14,518,,548,545,451,380,446,,487
2005-08-21,512,,526,566,488,373,457,,510
2005-08-28,514,,501,584,471,388,440,,542
2005-09-04,527,,524,556,460,406,478,,505
2005-09-11,525,,489,598,472,421,468,,528
2005-09-18,671,,517,597,490,429,483,,710
2005-09-25,729,,576,603,555,525,528,,706
2005-10-02,821,,659,657,571,578,547,,814
2005-10-09,890,486,696,747,657,672,566,,881
2005-10-16,867,591,757,771,652,798,587,,876
2005-10-23,793,625,749,790,699,789,650,,851
2005-10-30,676,655,737,769,798,763,635,,668
2005-11-06,836,642,740,771,847,728,697,,887
2005-11-13,725,724,728,766,789,689,713,,725
2005-11-20,795,816,811,853,801,655,720,,776
2005-11-27,827,894,753,845,795,702,775,,818
2005-12-04,767,885,818,836,812,726,828,,754
2005-12-11,923,894,913,883,818,787,848,,900
2005-12-18,786,849,837,836,806,754,836,,816
2005-12-25,796,914,849,796,785,734,835,,860
2006-01-01,786,904,838,705,823,759,831,,859
2006-01-08,873,918,795,684,810,708,837,,922
2006-01-15,920,914,816,655,842,767,816,,956
2006-01-22,840,875,838,699,864,768,803,,834
2006-01-29,824,831,766,789,924,804,899,,800
2006-02-05,854,825,731,833,906,839,897,,861
2006-02-12,884,810,693,830,866,1016,891,,929
2006-02-19,845,852,693,834,830,969,864,,868
2006-02-26,928,840,738,883,791,877,892,,958
2006-03-05,909,860,801,889,783,827,844,,896
2006-03-12,1021,942,912,913,798,830,854,,1005
2006-03-19,1054,969,1109,891,902,868,817,,1138
2006-03-26,916,1014,1106,908,931,851,792,,972
2006-04-02,851,983,1008,897,927,855,776,,865
2006-04-09,699,926,886,825,939,801,732,,670
2006-04-16,621,890,734,746,865,730,732,,634
2006-04-23,562,862,671,709,782,644,659,,566
2006-04-30,506,815,615,606,752,612,647,,501
2006-05-07,565,785,577,548,665,577,625,,581
2006-05-14,570,723,552,531,605,530,619,,583
2006-05-21,553,695,513,528,568,544,574,,561
2006-05-28,522,672,508,532,541,556,569,,522
2006-06-04,539,640,520,550,523,545,548,,537
2006-06-11,529,613,511,614,514,530,541,,505
2006-06-18,488,596,494,616,505,496,562,,475
2006-06-25,513,576,470,584,490,481,536,,546
2006-07-02,496,559,469,553,468,466,538,,529
2006-07-09,454,544,490,550,450,471,524,,438
2006-07-16,499,531,483,526,455,457,509,,506
2006-07-23,483,535,487,521,453,437,519,,458
2006-07-30,374,516,471,485,447,431,522,,395
2006-08-06,385,506,442,480,436,440,506,,343
2006-08-13,449,509,435,467,445,423,494,,425
2006-08-20,517,493,451,467,437,420,471,,569
2006-08-27,520,490,426,430,441,448,465,,512
2006-09-03,505,479,427,465,436,432,461,,538
2006-09-10,481,475,421,520,435,427,463,,511
2006-09-17,607,477,411,499,450,465,444,,695
2006-09-24,647,508,461,524,483,563,457,,653
2006-10-01,667,505,511,581,535,552,462,,649
2006-10-08,684,539,541,658,546,653,494,,703
2006-10-15,802,587,610,771,564,671,553,,789
2006-10-22,656,599,621,782,544,651,631,,665
2006-10-29,646,603,605,774,537,654,709,545,668
2006-11-05,781,626,622,720,576,673,745,541,845
2006-11-12,749,691,670,727,575,690,752,537,790
2006-11-19,845,771,798,850,596,706,786,540,795
2006-11-26,785,777,867,800,622,687,779,525,834
2006-12-03,693,773,804,738,611,707,777,572,723
2006-12-10,803,799,783,703,690,761,787,599,820
2006-12-17,791,837,731,741,703,754,786,604,836
2006-12-24,793,843,678,806,684,744,803,642,832
2006-12-31,858,848,752,788,709,772,794,631,855
2007-01-07,964,805,845,779,757,880,848,644,977
2007-01-14,869,820,954,737,823,920,871,661,872
2007-01-21,1070,896,923,877,942,883,945,693,1098
2007-01-28,1250,948,1213,1195,1032,1022,1067,789,1303
2007-02-04,1348,1058,1349,1214,1468,1292,1398,953,1425
2007-02-11,1453,1155,1345,1552,2017,1359,1583,1188,1484
2007-02-18,1607,1330,1632,1606,1813,1677,1717,1316,1555
2007-02-25,1469,1459,1578,1492,1400,1441,1529,1451,1578
2007-03-04,1207,1328,1349,1193,1210,1236,1278,1529,1255
2007-03-11,1053,1323,1173,1126,1062,1055,1145,1386,1073
2007-03-18,901,1217,1027,977,962,911,1058,1257,925
2007-03-25,783,1072,967,867,930,846,921,1137,754
2007-04-01,686,967,882,750,858,753,830,1030,728
2007-04-08,643,879,823,731,809,726,758,950,632
2007-04-15,631,873,763,640,745,666,679,863,681
2007-04-22,609,848,661,592,688,650,623,801,600
2007-04-29,524,802,629,541,645,618,580,756,535
2007-05-06,544,769,595,536,579,569,529,712,551
2007-05-13,512,724,543,545,532,553,504,670,532
2007-05-20,563,688,549,536,495,501,527,630,586
2007-05-27,505,675,545,549,486,468,493,597,484
2007-06-03,513,675,536,528,486,514,475,577,497
2007-06-10,521,626,541,512,469,488,494,566,518
2007-06-17,461,594,543,491,460,485,502,538,462
2007-06-24,493,552,506,474,492,497,507,528,473
2007-07-01,453,529,494,477,509,477,493,519,457
2007-07-08,535,501,479,506,529,469,501,521,538
2007-07-15,486,511,479,546,531,468,553,529,427
2007-07-22,516,483,489,532,518,494,593,538,480
2007-07-29,456,482,474,515,518,477,585,538,465
2007-08-05,462,474,448,489,527,454,583,527,493
2007-08-12,431,464,445,455,509,470,567,512,440
2007-08-19,486,471,441,449,496,486,571,502,480
2007-08-26,463,457,422,455,483,441,555,508,466
2007-09-02,529,466,446,473,475,433,558,509,506
2007-09-09,564,494,459,508,459,445,577,503,569
2007-09-16,739,495,533,598,479,483,638,496,763
2007-09-23,756,536,660,652,525,593,666,493,778
2007-09-30,840,579,817,742,586,772,771,524,840
2007-10-07,796,665,851,715,612,813,818,517,841
2007-10-14,820,776,887,746,725,849,756,542,826
2007-10-21,806,853,794,767,723,797,740,534,823
2007-10-28,712,923,799,803,696,765,739,526,701
2007-11-04,749,918,718,718,727,754,694,529,713
2007-11-11,807,875,682,677,712,769,651,531,746
2007-11-18,825,865,662,664,688,748,738,549,785
2007-11-25,882,863,722,735,662,784,723,584,849
2007-12-02,897,830,727,726,687,741,782,576,941
2007-12-09,1010,833,787,731,774,811,848,588,1013
2007-12-16,1052,830,840,769,790,792,801,570,1117
2007-12-23,1025,859,868,822,803,787,804,593,1099
2007-12-30,1241,884,913,915,951,939,991,615,1226
2008-01-06,1395,967,1172,1267,1081,1208,1230,618,1458
2008-01-13,1638,1538,1812,1447,1689,2154,1894,737,1705
2008-01-20,1750,1790,1826,2178,2173,2005,2308,844,1793
2008-01-27,1660,1978,1535,1941,2113,1639,2031,1025,1620
2008-02-03,1512,1739,1373,1504,1858,1629,1772,1298,1472
2008-02-10,1234,1565,1222,1248,1683,1519,1506,1315,1204
2008-02-17,1117,1381,1105,1199,1619,1224,1417,1320,1046
2008-02-24,1015,1174,1115,1097,1408,1036,1320,1185,1032
2008-03-02,897,1036,953,1034,1267,907,1175,1093,877
2008-03-09,849,962,831,868,1057,832,1008,1027,920
2008-03-16,810,892,770,780,998,760,883,967,871
2008-03-23,817,830,789,748,1005,738,827,886,806
2008-03-30,867,778,801,777,987,783,819,832,903
2008-04-06,842,808,889,889,937,838,853,777,832
2008-04-13,773,764,824,829,867,820,841,756,777
2008-04-20,711,744,787,816,736,784,805,730,695
2008-04-27,650,751,713,742,668,719,788,714,655
2008-05-04,645,712,684,691,643,674,767,697,642
2008-05-11,564,689,677,657,616,647,735,677,584
2008-05-18,539,665,608,625,607,599,671,637,530
2008-05-25,517,649,565,597,568,561,623,609,533
2008-06-01,525,614,530,604,538,526,599,602,540
2008-06-08,569,613,536,617,532,529,585,600,522
2008-06-15,592,606,553,631,521,533,574,584,611
2008-06-22,538,588,571,618,496,535,604,558,510
2008-06-29,520,601,524,610,492,565,600,558,525
2008-07-06,506,609,541,571,479,550,612,546,465
2008-07-13,522,605,487,539,522,515,614,525,550
2008-07-20,464,593,455,543,522,507,588,504,459
2008-07-27,422,567,427,517,518,475,549,482,441
2008-08-03,416,573,411,496,503,459,519,470,424
2008-08-10,390,559,408,461,486,444,502,450,405
2008-08-17,495,534,390,496,477,431,487,452,463
2008-08-24,450,524,395,499,472,418,472,448,437
2008-08-31,517,508,408,514,481,441,475,456,469
2008-09-07,570,511,449,589,464,455,444,450,599
2008-09-14,641,511,487,593,457,504,499,449,682
2008-09-21,824,505,574,653,506,579,551,463,922
2008-09-28,967,616,754,855,582,766,617,481,1014
2008-10-05,944,718,906,927,655,820,718,508,983
2008-10-12,886,782,969,886,817,829,773,571,915
2008-10-19,851,848,966,798,862,813,768,660,868
2008-10-26,861,928,989,825,844,818,710,663,893
2008-11-02,803,854,948,843,824,836,702,646,834
2008-11-09,858,864,912,816,794,852,697,743,906
2008-11-16,849,863,847,907,795,799,795,747,869
2008-11-23,919,846,822,969,827,819,852,708,966
2008-11-30,882,806,869,938,814,862,897,704,926
2008-12-07,927,894,898,896,817,882,856,739,941
2008-12-14,1086,907,996,1004,809,1030,880,737,1150
2008-12-21,1085,906,1153,1072,857,1085,871,744,1128
2008-12-28,1384,983,1220,1269,964,1303,1105,847,1474
2009-01-04,1681,1137,1718,1550,1480,1590,1576,1057,1860
2009-01-11,2138,1816,2479,2073,2069,2023,2289,1362,2304
2009-01-18,2602,2405,2505,2419,2206,2443,2532,2019,2745
2009-01-25,2507,2699,2337,2284,2290,2457,2700,2083,2535
2009-02-01,1941,2271,2036,1995,2028,1990,1934,2140,1919
2009-02-08,1434,1728,1598,1664,1682,1542,1608,1800,1366
2009-02-15,1176,1415,1304,1343,1306,1324,1429,1571,1125
2009-02-22,1095,1183,1205,1218,1088,1080,1123,1402,1130
2009-03-01,1141,1104,1248,997,938,1129,982,1210,1239
2009-03-08,960,1040,1170,880,1000,962,855,1040,992
2009-03-15,842,1023,1070,702,926,882,847,965,878
2009-03-22,809,950,939,710,831,837,785,915,851
2009-03-29,722,875,862,735,796,828,792,871,710
2009-04-05,616,816,787,615,693,754,709,812,631
2009-04-12,584,745,768,572,669,684,667,766,567
2009-04-19,566,674,705,543,621,612,636,714,572
2009-04-26,665,631,683,558,636,642,629,684,722
2009-05-03,624,600,662,575,608,653,614,676,641
2009-05-10,597,564,679,585,591,655,602,647,564
2009-05-17,516,544,661,577,574,600,599,633,507
2009-05-24,517,554,606,545,594,574,551,601,503
2009-05-31,510,547,599,504,560,504,504,570,545
2009-06-07,514,536,548,549,562,493,506,566,471
2009-06-14,511,537,503,578,533,485,492,560,524
2009-06-21,503,525,486,558,529,460,488,554,494
2009-06-28,480,534,498,527,515,451,501,562,464
2009-07-05,482,513,493,502,485,482,513,547,446
2009-07-12,499,509,491,499,473,497,533,536,498
2009-07-19,482,504,495,464,482,494,532,523,479
2009-07-26,503,516,485,474,457,527,540,503,512
2009-08-02,491,510,486,476,465,507,536,495,502
2009-08-09,467,514,468,459,429,524,508,507,462
2009-08-16,470,523,451,470,420,497,507,505,476
2009-08-23,489,524,444,499,436,485,494,500,484
2009-08-30,466,516,458,500,416,451,489,478,498
2009-09-06,576,537,493,521,422,433,482,485,600
2009-09-13,598,540,528,519,445,473,491,488,620
2009-09-20,687,549,603,601,511,544,519,501,707
2009-09-27,760,551,709,679,587,684,532,534,784
2009-10-04,877,636,894,777,709,718,630,580,917
2009-10-11,812,710,875,796,750,739,708,594,855
2009-10-18,828,804,830,752,810,805,761,643,855
2009-10-25,922,883,848,779,808,844,848,716,977
2009-11-01,1108,929,1012,931,900,1101,1306,801,1156
2009-11-08,1443,1062,1446,1220,1134,1546,1580,1044,1462
2009-11-15,1524,1321,1369,1256,1517,1454,1701,1245,1551
2009-11-22,1418,1496,1282,1242,1536,1412,1398,1360,1505
2009-11-29,1229,1504,1149,1133,1354,1251,1136,1298,1299
2009-12-06,1074,1332,1120,1002,1222,1169,983,1159,1093
2009-12-13,1036,1245,1162,933,1070,1117,946,1043,1047
2009-12-20,857,1115,1061,871,935,1126,922,927,827
2009-12-27,768,953,921,788,877,935,873,850,778
2010-01-03,735,918,793,683,758,853,792,790,713
2010-01-10,735,838,727,648,704,746,788,723,771
2010-01-17,757,774,779,663,678,683,782,715,777
2010-01-24,704,763,728,682,663,637,772,711,748
2010-01-31,757,746,738,738,654,688,766,661,757
2010-02-07,796,690,787,730,710,782,773,659,835
2010-02-14,844,671,852,714,715,792,800,694,876
2010-02-21,854,689,904,710,798,855,845,716,899
2010-02-28,742,667,785,693,781,805,839,700,787
2010-03-07,708,640,717,669,724,689,763,728,753
2010-03-14,688,696,696,686,705,613,678,738,709
2010-03-21,640,678,697,625,647,603,629,712,680
2010-03-28,510,637,650,536,612,549,570,685,534
2010-04-04,500,615,582,451,561,553,575,631,517
2010-04-11,514,586,510,446,532,519,546,596,532
2010-04-18,502,562,477,461,496,546,504,567,514
2010-04-25,530,520,500,490,478,543,482,544,546
2010-05-02,490,512,502,486,456,511,484,512,501
2010-05-09,460,486,488,457,449,489,468,479,471
2010-05-16,527,487,473,449,478,508,494,473,536
2010-05-23,506,471,466,467,489,523,500,460,518
2010-05-30,462,461,475,473,475,488,491,440,488
2010-06-06,466,446,487,491,496,436,484,432,484
2010-06-13,419,442,469,457,480,417,470,408,435
2010-06-20,441,446,441,453,465,408,443,409,461
2010-06-27,420,440,419,423,444,423,437,407,430
2010-07-04,411,416,405,426,439,438,437,400,424
2010-07-11,405,421,398,412,416,407,424,382,413
2010-07-18,406,414,396,387,409,392,417,369,436
2010-07-25,423,432,406,392,389,399,395,352,430
2010-08-01,389,421,394,362,371,408,394,356,403
2010-08-08,462,405,438,408,389,418,386,368,471
2010-08-15,476,406,460,448,411,442,385,367,471
2010-08-22,489,407,488,474,454,440,426,355,485
2010-08-29,499,405,482,477,478,471,463,371,516
2010-09-05,578,402,532,469,526,488,515,399,603
2010-09-12,678,405,681,532,582,550,590,416,715
2010-09-19,768,446,841,587,624,653,628,428,811
2010-09-26,867,547,882,700,673,827,664,495,917
2010-10-03,827,646,880,800,736,812,715,531,856
2010-10-10,833,792,927,760,726,838,692,559,856
2010-10-17,755,795,831,671,693,845,687,575,838
2010-10-24,609,749,735,565,650,679,641,589,645
2010-10-31,598,684,679,526,601,644,601,613,608
2010-11-07,643,636,673,513,585,663,602,586,681
2010-11-14,658,600,623,591,564,618,621,593,697
2010-11-21,691,565,627,595,584,655,694,567,740
2010-11-28,722,547,688,618,579,671,719,565,770
2010-12-05,710,575,708,649,568,733,712,550,750
2010-12-12,776,594,747,642,587,756,753,595,820
2010-12-19,779,589,752,601,617,747,794,616,836
2010-12-26,849,568,713,668,707,789,928,651,912
2011-01-02,930,604,708,823,846,1033,950,669,964
2011-01-09,1089,600,812,881,1031,1009,1183,750,1167
2011-01-16,1244,683,1189,1100,1177,1216,1219,809,1290
2011-01-23,1447,1007,1370,1340,1186,1646,1295,1004,1468
2011-01-30,1635,1405,1486,1618,1333,1805,1519,1303,1653
2011-02-06,1510,1721,1374,1464,1333,1978,1711,1437,1440
2011-02-13,1298,1675,1139,1328,1139,1792,1432,1296,1249
2011-02-20,1071,1467,987,1148,1028,1211,1106,1155,1074
2011-02-27,972,1221,883,1134,933,973,1018,998,996
2011-03-06,940,1079,865,908,833,944,926,868,964
2011-03-13,911,922,963,824,800,949,906,813,949
2011-03-20,818,882,921,733,761,845,898,767,821
2011-03-27,704,801,848,685,699,741,811,723,734
2011-04-03,645,748,697,638,645,665,739,722,682
2011-04-10,609,704,627,608,596,635,653,683,624
2011-04-17,501,670,543,569,542,577,593,644,521
2011-04-24,499,604,508,510,520,496,535,603,523
2011-05-01,464,582,473,514,504,462,540,553,452
2011-05-08,443,558,445,456,485,467,484,532,443
2011-05-15,482,555,433,451,456,481,477,499,476
2011-05-22,414,556,428,410,444,460,463,480,418
2011-05-29,390,510,421,401,437,424,458,458,401
2011-06-05,401,480,410,398,428,405,454,437,381
2011-06-12,390,480,393,386,409,384,428,424,414
2011-06-19,352,464,362,370,395,404,434,419,347
2011-06-26,381,433,365,346,394,400,423,430,380
2011-07-03,362,416,350,341,374,422,420,417,345
2011-07-10,357,406,343,345,361,413,393,412,357
2011-07-17,363,387,345,343,358,395,399,405,355
2011-07-24,345,370,337,319,338,390,374,407,353
2011-07-31,335,359,330,317,326,372,371,380,344
2011-08-07,291,377,328,293,316,351,349,368,301
2011-08-14,311,372,313,297,331,327,341,366,312
2011-08-21,301,369,308,285,326,308,331,360,286
2011-08-28,320,354,304,299,310,292,343,361,331
2011-09-04,318,351,301,303,312,274,353,359,340
2011-09-11,327,352,293,320,310,280,348,349,350
2011-09-18,423,349,322,359,319,302,362,345,434
2011-09-25,549,355,352,415,337,355,392,348,594
2011-10-02,564,361,439,496,374,419,427,360,614
2011-10-09,644,364,529,496,389,562,512,372,680
2011-10-16,750,390,595,550,449,636,607,390,792
2011-10-23,674,446,609,609,502,685,639,401,708
2011-10-30,669,490,577,630,500,634,675,435,742
2011-11-06,712,578,569,581,527,625,674,446,809
2011-11-13,713,624,568,598,557,612,646,512,800
2011-11-20,806,674,625,653,577,612,707,565,904
2011-11-27,865,687,677,740,584,688,736,584,951
2011-12-04,782,713,681,711,658,694,746,582,889
2011-12-11,888,781,659,690,666,730,848,603,1001
2011-12-18,829,828,627,728,683,721,831,608,949
2011-12-25,850,832,675,621,672,767,864,666,958
2012-01-01,819,819,647,684,645,736,810,677,935
2012-01-08,817,854,677,717,624,724,795,709,899
2012-01-15,808,817,652,668,623,790,765,734,880
2012-01-22,784,770,704,668,609,769,757,726,862
2012-01-29,866,730,692,684,649,759,775,691,1000
2012-02-05,1075,720,756,823,688,851,858,705,1236
2012-02-12,1281,697,896,1188,834,1009,1129,779,1481
2012-02-19,1510,838,1160,1365,1073,1367,1321,849,1770
2012-02-26,1540,1083,1492,1328,1182,1513,1404,970,1701
2012-03-04,1310,1250,1427,1080,1204,1324,1290,1125,1401
2012-03-11,1138,1210,1176,946,1091,1075,1096,1047,1271
2012-03-18,972,1091,1006,833,1011,860,954,973,1109
2012-03-25,814,950,884,762,818,742,844,927,882
2012-04-01,657,838,721,690,702,617,719,831,752
2012-04-08,670,774,628,597,654,540,669,780,759
2012-04-15,662,683,576,590,597,514,613,724,735
2012-04-22,622,624,584,560,584,537,569,678,692
2012-04-29,544,565,578,500,550,513,564,630,604
2012-05-06,551,517,515,506,517,468,545,590,613
2012-05-13,522,500,483,497,496,450,545,567,574
2012-05-20,517,483,453,471,474,446,551,535,566
2012-05-27,495,464,426,437,441,469,513,512,548
2012-06-03,470,453,436,432,417,430,518,503,519
2012-06-10,526,442,428,450,409,467,482,494,548
2012-06-17,467,438,385,460,402,435,481,474,516
2012-06-24,491,432,387,441,394,481,487,457,543
2012-07-01,409,422,358,397,391,436,486,448,466
2012-07-08,418,415,348,368,377,419,457,442,452
2012-07-15,487,421,336,389,362,405,450,437,548
2012-07-22,443,415,316,375,364,377,452,436,490
2012-07-29,430,423,310,378,349,392,444,427,484
2012-08-05,426,417,329,381,344,375,419,407,480
2012-08-12,427,411,323,372,344,365,422,402,493
2012-08-19,433,415,330,371,358,379,406,394,480
2012-08-26,455,407,369,392,355,361,397,392,502
2012-09-02,501,415,376,406,369,392,399,390,547
2012-09-09,517,409,404,437,368,393,399,393,588
2012-09-16,684,419,446,467,391,510,474,397,780
2012-09-23,830,440,521,597,439,578,599,419,933
2012-09-30,895,463,599,690,511,673,780,432,1038
2012-10-07,926,545,651,652,597,744,849,463,1086
2012-10-14,916,588,680,657,679,731,916,518,1073
2012-10-21,909,647,727,693,689,659,864,570,1057
2012-10-28,812,663,657,667,673,633,803,590,953
2012-11-04,855,662,623,672,672,724,726,634,981
2012-11-11,850,655,630,674,663,759,734,634,950
2012-11-18,817,666,642,714,634,720,754,657,919
2012-11-25,811,644,673,663,659,676,732,678,916
2012-12-02,831,696,644,678,590,614,724,658,990
2012-12-09,970,690,663,737,576,600,772,695,1123
2012-12-16,1014,729,715,808,640,771,847,738,1145
2012-12-23,976,765,704,801,633,851,863,778,1116
2012-12-30,1118,801,749,842,736,900,961,858,1270
2013-01-06,1175,831,843,923,755,956,1120,966,1372
2013-01-13,1286,1027,958,1159,874,1135,1442,1222,1409
2013-01-20,1598,1184,1389,1286,1122,1260,1582,1306,1840
2013-01-27,2063,1304,1617,1502,1601,1429,1812,1687,2435
2013-02-03,2141,1467,1758,1630,1966,1520,2099,2029,2424
2013-02-10,2297,1783,1817,2073,1911,2019,2094,2067,2534
2013-02-17,2408,1843,1778,2238,1842,2067,2043,2115,2681
2013-02-24,2060,1798,1569,1745,1654,1676,1812,2017,2333
2013-03-03,1641,1490,1283,1240,1308,1334,1533,1827,1908
2013-03-10,1341,1338,1122,986,1057,1129,1224,1568,1537
2013-03-17,1191,1150,929,936,974,1117,1017,1334,1365
2013-03-24,1026,1032,818,764,902,908,899,1086,1195
2013-03-31,1034,892,797,759,810,860,857,962,1241
2013-04-07,916,851,779,737,730,768,743,860,1056
2013-04-14,774,771,727,673,673,689,725,790,873
2013-04-21,726,734,693,581,630,658,683,730,820
2013-04-28,598,690,594,492,587,564,608,668,699
2013-05-05,587,633,532,432,538,530,553,640,689
2013-05-12,638,593,482,388,505,539,557,608,737
2013-05-19,607,552,437,375,466,595,556,577,690
2013-05-26,588,507,438,389,464,607,633,544,668
2013-06-02,638,502,443,402,458,554,623,520,742
2013-06-09,636,488,458,447,484,550,644,487,724
2013-06-16,525,489,452,467,454,509,614,476,602
2013-06-23,549,471,459,421,432,516,565,460,623
2013-06-30,567,471,442,441,398,548,524,462,650
2013-07-07,546,462,439,438,395,495,479,456,648
2013-07-14,490,468,408,439,378,464,448,447,566
2013-07-21,481,444,378,404,366,459,430,432,554
2013-07-28,433,433,355,367,365,418,408,409,500
2013-08-04,452,412,327,349,370,391,397,399,524
2013-08-11,453,417,327,322,356,359,403,390,534
2013-08-18,517,411,352,352,350,373,411,411,593
2013-08-25,538,421,370,379,356,393,433,429,639
2013-09-01,596,428,462,383,346,413,449,408,711
2013-09-08,654,447,532,394,336,449,527,408,762
2013-09-15,805,462,661,467,375,575,577,419,965
2013-09-22,1000,529,786,660,451,803,676,457,1170
2013-09-29,1060,605,802,795,528,832,763,521,1244
2013-10-06,1090,797,776,852,614,853,864,541,1294
2013-10-13,1015,893,760,757,663,834,891,702,1176
2013-10-20,927,916,702,705,688,768,859,729,1075
2013-10-27,813,845,677,632,661,691,804,713,925
2013-11-03,876,805,720,618,619,647,717,701,1039
2013-11-10,871,711,720,623,612,637,702,688,1031
2013-11-17,919,693,715,663,640,652,802,674,1078
2013-11-24,920,662,678,659,655,791,797,647,1083
2013-12-01,922,668,680,657,663,837,787,689,1065
2013-12-08,1090,766,765,705,679,797,950,747,1255
2013-12-15,1074,845,872,789,719,857,951,757,1237
2013-12-22,1003,850,838,731,677,1011,848,795,1207
2013-12-29,1074,915,803,797,709,1101,881,842,1206
2014-01-05,1095,865,875,824,707,1073,1005,847,1244
2014-01-12,1042,906,870,753,735,844,1018,891,1200
2014-01-19,1128,888,901,803,801,930,1014,860,1320
2014-01-26,1242,933,877,857,913,1106,1065,847,1483
2014-02-02,1401,1041,994,1079,1001,1190,1202,902,1619
2014-02-09,1523,1071,1138,1232,1103,1315,1375,924,1762
2014-02-16,1528,1181,1202,1263,1147,1244,1184,1088,1804
2014-02-23,1565,1253,1521,1268,1097,1371,1206,1115,1780
2014-03-02,1491,1229,1339,1157,1053,1354,1246,1134,1747
2014-03-09,1473,1249,1346,1120,1106,1414,1202,1214,1660
2014-03-16,1317,1174,1217,1149,1062,1134,1012,1157,1511
2014-03-23,1183,1069,1077,830,956,1118,989,1039,1344
2014-03-30,1123,1006,983,923,870,1022,1015,932,1269
2014-04-06,950,957,855,754,781,862,926,828,1076
2014-04-13,822,895,747,681,660,759,794,766,940
2014-04-20,846,860,717,683,626,762,709,741,934
2014-04-27,736,811,706,594,605,792,725,700,799
2014-05-04,762,835,639,562,570,731,683,679,850
2014-05-11,755,808,623,580,547,691,668,623,860
2014-05-18,806,755,677,635,540,749,724,628,887
2014-05-25,715,687,666,586,542,689,713,604,829
2014-06-01,793,748,663,558,541,656,738,588,877
2014-06-08,632,711,603,515,522,631,681,595,708
2014-06-15,594,676,601,512,505,576,619,565,657
2014-06-22,562,635,561,472,471,507,575,555,644
2014-06-29,569,599,519,460,459,488,528,543,641
2014-07-06,577,595,502,464,460,465,504,536,656
2014-07-13,591,566,471,472,445,465,562,528,656
2014-07-20,540,521,447,466,444,457,537,511,634
2014-07-27,509,478,391,448,429,444,529,519,604
2014-08-03,501,471,379,439,429,437,526,495,557
2014-08-10,491,476,361,424,427,407,469,473,585
2014-08-17,568,488,354,422,410,413,501,479,647
2014-08-24,603,502,372,427,405,437,519,474,711
2014-08-31,659,499,428,463,430,495,538,464,751
2014-09-07,775,514,560,523,453,600,593,466,924
2014-09-14,984,545,753,596,500,709,656,466,1176
2014-09-21,1064,606,904,753,583,842,705,484,1249
2014-09-28,1064,648,887,813,634,837,838,582,1245
2014-10-05,1123,939,871,786,701,845,919,754,1332
2014-10-12,1066,934,897,763,695,946,876,805,1245
2014-10-19,1062,904,917,735,672,886,841,799,1258
2014-10-26,1018,890,946,730,696,886,881,801,1159
2014-11-02,1101,842,974,731,710,931,880,789,1289
2014-11-09,1165,920,935,768,717,931,868,781,1378
2014-11-16,1205,940,972,841,742,1025,857,761,1440
2014-11-23,1246,968,1094,927,786,1044,927,773,1455
2014-11-30,1222,992,1162,860,853,992,990,780,1427
2014-12-07,1360,1155,1194,1003,987,1230,963,809,1560
2014-12-14,1436,1275,1299,969,1086,1189,1187,812,1653
2014-12-21,1450,1340,1177,1067,1200,1481,1223,892,1668
2014-12-28,1602,1369,1418,1329,1323,1434,1473,939,1779
2015-01-04,1717,1610,1401,1305,1468,1537,1596,1053,1970
2015-01-11,1686,1694,1327,1186,1261,1531,1745,1198,1938
2015-01-18,2035,2121,1578,1635,1252,1809,1970,1400,2355
2015-01-25,2465,2927,2093,1813,2069,2260,2182,1880,2822
2015-02-01,2873,3300,2537,2103,2119,2944,2452,2523,3310
2015-02-08,2972,3132,2704,2297,2016,3038,2508,2393,3336
2015-02-15,2867,2360,2478,2323,2143,2919,2671,2458,3195
2015-02-22,2645,2174,2532,2075,2037,2298,2424,2608,2980
2015-03-01,2179,2003,2088,1560,1696,1836,2167,2082,2491
2015-03-08,1902,1749,1894,1432,1603,1461,1989,1745,2141
2015-03-15,1618,1518,1502,1209,1356,1251,1622,1397,1871
2015-03-22,1459,1336,1221,1196,1201,1165,1266,1259,1686
2015-03-29,1094,1137,1024,890,1065,1067,1105,1036,1258
2015-04-05,1101,987,1109,829,950,899,1008,898,1250
2015-04-12,929,892,962,725,808,861,874,826,1074
2015-04-19,831,796,797,646,716,760,783,782,953
2015-04-26,710,708,711,556,667,611,674,728,845
2015-05-03,727,685,660,504,583,592,645,659,844
2015-05-10,642,627,640,457,540,591,641,627,733
2015-05-17,648,579,631,414,520,541,661,612,751
2015-05-24,714,562,602,479,520,616,624,591,806
2015-05-31,649,572,552,508,506,589,633,586,742
2015-06-07,641,586,546,517,524,565,595,564,721
2015-06-14,641,584,523,533,512,542,601,543,736
2015-06-21,648,618,553,528,488,538,604,541,733
2015-06-28,619,608,557,516,494,547,622,540,676
2015-07-05,538,561,513,491,464,519,624,570,594
2015-07-12,568,537,490,472,467,494,605,543,629
2015-07-19,506,520,457,429,437,485,538,518,578
2015-07-26,519,489,475,417,406,521,505,489,581
2015-08-02,506,487,482,415,404,506,461,473,553
2015-08-09,494,497,465,394,419,487,436,453,546